proyecto-01/p2s/results.txt
VCD info: dumpfile p2s.vcd opened for output.

At time                    0
CLK = 0, CLK_2 = x, CLK_4 = x, CLK_8 = x, sel = 0
data_out_cond = x, Q0_cond = xx, Q1_cond = xx, Q2_cond = xx, Q3_cond = xx,
data_out_synth = x, Q0_synth = xx, Q1_synth = xx, Q2_synth = xx, Q3_synth = xx
data_out_synth_delay = x, Q0_synth_delay = xx, Q1_synth_delay = xx, Q2_synth_delay = xx, Q3_synth_delay = xx

At time                10000
CLK = 1, CLK_2 = 0, CLK_4 = 0, CLK_8 = 0, sel = 1
data_out_cond = z, Q0_cond = zz, Q1_cond = zz, Q2_cond = zz, Q3_cond = zz,
data_out_synth = 0, Q0_synth = 00, Q1_synth = 00, Q2_synth = 00, Q3_synth = 00
data_out_synth_delay = x, Q0_synth_delay = xx, Q1_synth_delay = xx, Q2_synth_delay = xx, Q3_synth_delay = xx

At time                10150
CLK = 1, CLK_2 = 0, CLK_4 = 0, CLK_8 = 0, sel = 1
data_out_cond = z, Q0_cond = zz, Q1_cond = zz, Q2_cond = zz, Q3_cond = zz,
data_out_synth = 0, Q0_synth = 00, Q1_synth = 00, Q2_synth = 00, Q3_synth = 00
data_out_synth_delay = x, Q0_synth_delay = 00, Q1_synth_delay = 00, Q2_synth_delay = 00, Q3_synth_delay = 00

At time                10630
CLK = 1, CLK_2 = 0, CLK_4 = 0, CLK_8 = 0, sel = 1
data_out_cond = z, Q0_cond = zz, Q1_cond = zz, Q2_cond = zz, Q3_cond = zz,
data_out_synth = 0, Q0_synth = 00, Q1_synth = 00, Q2_synth = 00, Q3_synth = 00
data_out_synth_delay = 0, Q0_synth_delay = 00, Q1_synth_delay = 00, Q2_synth_delay = 00, Q3_synth_delay = 00

At time                15000
CLK = 0, CLK_2 = 0, CLK_4 = 0, CLK_8 = 0, sel = 1
data_out_cond = z, Q0_cond = zz, Q1_cond = zz, Q2_cond = zz, Q3_cond = zz,
data_out_synth = 0, Q0_synth = 00, Q1_synth = 00, Q2_synth = 00, Q3_synth = 00
data_out_synth_delay = 0, Q0_synth_delay = 00, Q1_synth_delay = 00, Q2_synth_delay = 00, Q3_synth_delay = 00

At time                20000
CLK = 1, CLK_2 = 1, CLK_4 = 1, CLK_8 = 1, sel = 2
data_out_cond = 3, Q0_cond = 67, Q1_cond = 45, Q2_cond = 23, Q3_cond = 01,
data_out_synth = 3, Q0_synth = 67, Q1_synth = 45, Q2_synth = 23, Q3_synth = 01
data_out_synth_delay = 0, Q0_synth_delay = 00, Q1_synth_delay = 00, Q2_synth_delay = 00, Q3_synth_delay = 00

At time                20150
CLK = 1, CLK_2 = 1, CLK_4 = 1, CLK_8 = 1, sel = 2
data_out_cond = 3, Q0_cond = 67, Q1_cond = 45, Q2_cond = 23, Q3_cond = 01,
data_out_synth = 3, Q0_synth = 67, Q1_synth = 45, Q2_synth = 23, Q3_synth = 01
data_out_synth_delay = 0, Q0_synth_delay = 67, Q1_synth_delay = 45, Q2_synth_delay = 23, Q3_synth_delay = 01

At time                20630
CLK = 1, CLK_2 = 1, CLK_4 = 1, CLK_8 = 1, sel = 2
data_out_cond = 3, Q0_cond = 67, Q1_cond = 45, Q2_cond = 23, Q3_cond = 01,
data_out_synth = 3, Q0_synth = 67, Q1_synth = 45, Q2_synth = 23, Q3_synth = 01
data_out_synth_delay = 3, Q0_synth_delay = 67, Q1_synth_delay = 45, Q2_synth_delay = 23, Q3_synth_delay = 01

At time                25000
CLK = 0, CLK_2 = 1, CLK_4 = 1, CLK_8 = 1, sel = 2
data_out_cond = 3, Q0_cond = 67, Q1_cond = 45, Q2_cond = 23, Q3_cond = 01,
data_out_synth = 3, Q0_synth = 67, Q1_synth = 45, Q2_synth = 23, Q3_synth = 01
data_out_synth_delay = 3, Q0_synth_delay = 67, Q1_synth_delay = 45, Q2_synth_delay = 23, Q3_synth_delay = 01

At time                30000
CLK = 1, CLK_2 = 0, CLK_4 = 1, CLK_8 = 1, sel = 3
data_out_cond = 0, Q0_cond = 67, Q1_cond = 45, Q2_cond = 23, Q3_cond = 01,
data_out_synth = 0, Q0_synth = 67, Q1_synth = 45, Q2_synth = 23, Q3_synth = 01
data_out_synth_delay = 3, Q0_synth_delay = 67, Q1_synth_delay = 45, Q2_synth_delay = 23, Q3_synth_delay = 01

At time                30400
CLK = 1, CLK_2 = 0, CLK_4 = 1, CLK_8 = 1, sel = 3
data_out_cond = 0, Q0_cond = 67, Q1_cond = 45, Q2_cond = 23, Q3_cond = 01,
data_out_synth = 0, Q0_synth = 67, Q1_synth = 45, Q2_synth = 23, Q3_synth = 01
data_out_synth_delay = 0, Q0_synth_delay = 67, Q1_synth_delay = 45, Q2_synth_delay = 23, Q3_synth_delay = 01

At time                35000
CLK = 0, CLK_2 = 0, CLK_4 = 1, CLK_8 = 1, sel = 3
data_out_cond = 0, Q0_cond = 67, Q1_cond = 45, Q2_cond = 23, Q3_cond = 01,
data_out_synth = 0, Q0_synth = 67, Q1_synth = 45, Q2_synth = 23, Q3_synth = 01
data_out_synth_delay = 0, Q0_synth_delay = 67, Q1_synth_delay = 45, Q2_synth_delay = 23, Q3_synth_delay = 01

At time                40000
CLK = 1, CLK_2 = 1, CLK_4 = 0, CLK_8 = 1, sel = 4
data_out_cond = 0, Q0_cond = 67, Q1_cond = 45, Q2_cond = 23, Q3_cond = 01,
data_out_synth = 0, Q0_synth = 67, Q1_synth = 45, Q2_synth = 23, Q3_synth = 01
data_out_synth_delay = 0, Q0_synth_delay = 67, Q1_synth_delay = 45, Q2_synth_delay = 23, Q3_synth_delay = 01

At time                40240
CLK = 1, CLK_2 = 1, CLK_4 = 0, CLK_8 = 1, sel = 4
data_out_cond = 0, Q0_cond = 67, Q1_cond = 45, Q2_cond = 23, Q3_cond = 01,
data_out_synth = 0, Q0_synth = 67, Q1_synth = 45, Q2_synth = 23, Q3_synth = 01
data_out_synth_delay = 5, Q0_synth_delay = 67, Q1_synth_delay = 45, Q2_synth_delay = 23, Q3_synth_delay = 01

At time                40320
CLK = 1, CLK_2 = 1, CLK_4 = 0, CLK_8 = 1, sel = 4
data_out_cond = 0, Q0_cond = 67, Q1_cond = 45, Q2_cond = 23, Q3_cond = 01,
data_out_synth = 0, Q0_synth = 67, Q1_synth = 45, Q2_synth = 23, Q3_synth = 01
data_out_synth_delay = 0, Q0_synth_delay = 67, Q1_synth_delay = 45, Q2_synth_delay = 23, Q3_synth_delay = 01

At time                40400
CLK = 1, CLK_2 = 1, CLK_4 = 0, CLK_8 = 1, sel = 4
data_out_cond = 0, Q0_cond = 67, Q1_cond = 45, Q2_cond = 23, Q3_cond = 01,
data_out_synth = 0, Q0_synth = 67, Q1_synth = 45, Q2_synth = 23, Q3_synth = 01
data_out_synth_delay = f, Q0_synth_delay = 67, Q1_synth_delay = 45, Q2_synth_delay = 23, Q3_synth_delay = 01

At time                40560
CLK = 1, CLK_2 = 1, CLK_4 = 0, CLK_8 = 1, sel = 4
data_out_cond = 0, Q0_cond = 67, Q1_cond = 45, Q2_cond = 23, Q3_cond = 01,
data_out_synth = 0, Q0_synth = 67, Q1_synth = 45, Q2_synth = 23, Q3_synth = 01
data_out_synth_delay = 0, Q0_synth_delay = 67, Q1_synth_delay = 45, Q2_synth_delay = 23, Q3_synth_delay = 01

At time                45000
CLK = 0, CLK_2 = 1, CLK_4 = 0, CLK_8 = 1, sel = 4
data_out_cond = 0, Q0_cond = 67, Q1_cond = 45, Q2_cond = 23, Q3_cond = 01,
data_out_synth = 0, Q0_synth = 67, Q1_synth = 45, Q2_synth = 23, Q3_synth = 01
data_out_synth_delay = 0, Q0_synth_delay = 67, Q1_synth_delay = 45, Q2_synth_delay = 23, Q3_synth_delay = 01

At time                50000
CLK = 1, CLK_2 = 0, CLK_4 = 0, CLK_8 = 1, sel = 5
data_out_cond = 5, Q0_cond = 67, Q1_cond = 45, Q2_cond = 23, Q3_cond = 01,
data_out_synth = 5, Q0_synth = 67, Q1_synth = 45, Q2_synth = 23, Q3_synth = 01
data_out_synth_delay = 0, Q0_synth_delay = 67, Q1_synth_delay = 45, Q2_synth_delay = 23, Q3_synth_delay = 01

At time                50320
CLK = 1, CLK_2 = 0, CLK_4 = 0, CLK_8 = 1, sel = 5
data_out_cond = 5, Q0_cond = 67, Q1_cond = 45, Q2_cond = 23, Q3_cond = 01,
data_out_synth = 5, Q0_synth = 67, Q1_synth = 45, Q2_synth = 23, Q3_synth = 01
data_out_synth_delay = 5, Q0_synth_delay = 67, Q1_synth_delay = 45, Q2_synth_delay = 23, Q3_synth_delay = 01

At time                55000
CLK = 0, CLK_2 = 0, CLK_4 = 0, CLK_8 = 1, sel = 5
data_out_cond = 5, Q0_cond = 67, Q1_cond = 45, Q2_cond = 23, Q3_cond = 01,
data_out_synth = 5, Q0_synth = 67, Q1_synth = 45, Q2_synth = 23, Q3_synth = 01
data_out_synth_delay = 5, Q0_synth_delay = 67, Q1_synth_delay = 45, Q2_synth_delay = 23, Q3_synth_delay = 01

At time                60000
CLK = 1, CLK_2 = 1, CLK_4 = 1, CLK_8 = 0, sel = 6
data_out_cond = 3, Q0_cond = 67, Q1_cond = 45, Q2_cond = 23, Q3_cond = 01,
data_out_synth = 3, Q0_synth = 67, Q1_synth = 45, Q2_synth = 23, Q3_synth = 01
data_out_synth_delay = 5, Q0_synth_delay = 67, Q1_synth_delay = 45, Q2_synth_delay = 23, Q3_synth_delay = 01

At time                60240
CLK = 1, CLK_2 = 1, CLK_4 = 1, CLK_8 = 0, sel = 6
data_out_cond = 3, Q0_cond = 67, Q1_cond = 45, Q2_cond = 23, Q3_cond = 01,
data_out_synth = 3, Q0_synth = 67, Q1_synth = 45, Q2_synth = 23, Q3_synth = 01
data_out_synth_delay = 0, Q0_synth_delay = 67, Q1_synth_delay = 45, Q2_synth_delay = 23, Q3_synth_delay = 01

At time                60400
CLK = 1, CLK_2 = 1, CLK_4 = 1, CLK_8 = 0, sel = 6
data_out_cond = 3, Q0_cond = 67, Q1_cond = 45, Q2_cond = 23, Q3_cond = 01,
data_out_synth = 3, Q0_synth = 67, Q1_synth = 45, Q2_synth = 23, Q3_synth = 01
data_out_synth_delay = 3, Q0_synth_delay = 67, Q1_synth_delay = 45, Q2_synth_delay = 23, Q3_synth_delay = 01

At time                65000
CLK = 0, CLK_2 = 1, CLK_4 = 1, CLK_8 = 0, sel = 6
data_out_cond = 3, Q0_cond = 67, Q1_cond = 45, Q2_cond = 23, Q3_cond = 01,
data_out_synth = 3, Q0_synth = 67, Q1_synth = 45, Q2_synth = 23, Q3_synth = 01
data_out_synth_delay = 3, Q0_synth_delay = 67, Q1_synth_delay = 45, Q2_synth_delay = 23, Q3_synth_delay = 01

At time                70000
CLK = 1, CLK_2 = 0, CLK_4 = 1, CLK_8 = 0, sel = 7
data_out_cond = 0, Q0_cond = 67, Q1_cond = 45, Q2_cond = 23, Q3_cond = 01,
data_out_synth = 0, Q0_synth = 67, Q1_synth = 45, Q2_synth = 23, Q3_synth = 01
data_out_synth_delay = 3, Q0_synth_delay = 67, Q1_synth_delay = 45, Q2_synth_delay = 23, Q3_synth_delay = 01

At time                70400
CLK = 1, CLK_2 = 0, CLK_4 = 1, CLK_8 = 0, sel = 7
data_out_cond = 0, Q0_cond = 67, Q1_cond = 45, Q2_cond = 23, Q3_cond = 01,
data_out_synth = 0, Q0_synth = 67, Q1_synth = 45, Q2_synth = 23, Q3_synth = 01
data_out_synth_delay = 0, Q0_synth_delay = 67, Q1_synth_delay = 45, Q2_synth_delay = 23, Q3_synth_delay = 01

At time                75000
CLK = 0, CLK_2 = 0, CLK_4 = 1, CLK_8 = 0, sel = 7
data_out_cond = 0, Q0_cond = 67, Q1_cond = 45, Q2_cond = 23, Q3_cond = 01,
data_out_synth = 0, Q0_synth = 67, Q1_synth = 45, Q2_synth = 23, Q3_synth = 01
data_out_synth_delay = 0, Q0_synth_delay = 67, Q1_synth_delay = 45, Q2_synth_delay = 23, Q3_synth_delay = 01

At time                80000
CLK = 1, CLK_2 = 1, CLK_4 = 0, CLK_8 = 0, sel = 0
data_out_cond = f, Q0_cond = ef, Q1_cond = cd, Q2_cond = ab, Q3_cond = 89,
data_out_synth = f, Q0_synth = ef, Q1_synth = cd, Q2_synth = ab, Q3_synth = 89
data_out_synth_delay = 0, Q0_synth_delay = 67, Q1_synth_delay = 45, Q2_synth_delay = 23, Q3_synth_delay = 01

At time                80150
CLK = 1, CLK_2 = 1, CLK_4 = 0, CLK_8 = 0, sel = 0
data_out_cond = f, Q0_cond = ef, Q1_cond = cd, Q2_cond = ab, Q3_cond = 89,
data_out_synth = f, Q0_synth = ef, Q1_synth = cd, Q2_synth = ab, Q3_synth = 89
data_out_synth_delay = 0, Q0_synth_delay = ef, Q1_synth_delay = cd, Q2_synth_delay = ab, Q3_synth_delay = 89

At time                80240
CLK = 1, CLK_2 = 1, CLK_4 = 0, CLK_8 = 0, sel = 0
data_out_cond = f, Q0_cond = ef, Q1_cond = cd, Q2_cond = ab, Q3_cond = 89,
data_out_synth = f, Q0_synth = ef, Q1_synth = cd, Q2_synth = ab, Q3_synth = 89
data_out_synth_delay = 5, Q0_synth_delay = ef, Q1_synth_delay = cd, Q2_synth_delay = ab, Q3_synth_delay = 89

At time                80320
CLK = 1, CLK_2 = 1, CLK_4 = 0, CLK_8 = 0, sel = 0
data_out_cond = f, Q0_cond = ef, Q1_cond = cd, Q2_cond = ab, Q3_cond = 89,
data_out_synth = f, Q0_synth = ef, Q1_synth = cd, Q2_synth = ab, Q3_synth = 89
data_out_synth_delay = 0, Q0_synth_delay = ef, Q1_synth_delay = cd, Q2_synth_delay = ab, Q3_synth_delay = 89

At time                80560
CLK = 1, CLK_2 = 1, CLK_4 = 0, CLK_8 = 0, sel = 0
data_out_cond = f, Q0_cond = ef, Q1_cond = cd, Q2_cond = ab, Q3_cond = 89,
data_out_synth = f, Q0_synth = ef, Q1_synth = cd, Q2_synth = ab, Q3_synth = 89
data_out_synth_delay = f, Q0_synth_delay = ef, Q1_synth_delay = cd, Q2_synth_delay = ab, Q3_synth_delay = 89

At time                85000
CLK = 0, CLK_2 = 1, CLK_4 = 0, CLK_8 = 0, sel = 0
data_out_cond = f, Q0_cond = ef, Q1_cond = cd, Q2_cond = ab, Q3_cond = 89,
data_out_synth = f, Q0_synth = ef, Q1_synth = cd, Q2_synth = ab, Q3_synth = 89
data_out_synth_delay = f, Q0_synth_delay = ef, Q1_synth_delay = cd, Q2_synth_delay = ab, Q3_synth_delay = 89

At time                90000
CLK = 1, CLK_2 = 0, CLK_4 = 0, CLK_8 = 0, sel = 1
data_out_cond = 5, Q0_cond = ef, Q1_cond = cd, Q2_cond = ab, Q3_cond = 89,
data_out_synth = 5, Q0_synth = ef, Q1_synth = cd, Q2_synth = ab, Q3_synth = 89
data_out_synth_delay = f, Q0_synth_delay = ef, Q1_synth_delay = cd, Q2_synth_delay = ab, Q3_synth_delay = 89

At time                90400
CLK = 1, CLK_2 = 0, CLK_4 = 0, CLK_8 = 0, sel = 1
data_out_cond = 5, Q0_cond = ef, Q1_cond = cd, Q2_cond = ab, Q3_cond = 89,
data_out_synth = 5, Q0_synth = ef, Q1_synth = cd, Q2_synth = ab, Q3_synth = 89
data_out_synth_delay = 5, Q0_synth_delay = ef, Q1_synth_delay = cd, Q2_synth_delay = ab, Q3_synth_delay = 89

At time                95000
CLK = 0, CLK_2 = 0, CLK_4 = 0, CLK_8 = 0, sel = 1
data_out_cond = 5, Q0_cond = ef, Q1_cond = cd, Q2_cond = ab, Q3_cond = 89,
data_out_synth = 5, Q0_synth = ef, Q1_synth = cd, Q2_synth = ab, Q3_synth = 89
data_out_synth_delay = 5, Q0_synth_delay = ef, Q1_synth_delay = cd, Q2_synth_delay = ab, Q3_synth_delay = 89

At time               100000
CLK = 1, CLK_2 = 1, CLK_4 = 1, CLK_8 = 1, sel = 2
data_out_cond = 3, Q0_cond = ef, Q1_cond = cd, Q2_cond = ab, Q3_cond = 89,
data_out_synth = 3, Q0_synth = ef, Q1_synth = cd, Q2_synth = ab, Q3_synth = 89
data_out_synth_delay = 5, Q0_synth_delay = ef, Q1_synth_delay = cd, Q2_synth_delay = ab, Q3_synth_delay = 89

At time               100160
CLK = 1, CLK_2 = 1, CLK_4 = 1, CLK_8 = 1, sel = 2
data_out_cond = 3, Q0_cond = ef, Q1_cond = cd, Q2_cond = ab, Q3_cond = 89,
data_out_synth = 3, Q0_synth = ef, Q1_synth = cd, Q2_synth = ab, Q3_synth = 89
data_out_synth_delay = f, Q0_synth_delay = ef, Q1_synth_delay = cd, Q2_synth_delay = ab, Q3_synth_delay = 89

At time               100320
CLK = 1, CLK_2 = 1, CLK_4 = 1, CLK_8 = 1, sel = 2
data_out_cond = 3, Q0_cond = ef, Q1_cond = cd, Q2_cond = ab, Q3_cond = 89,
data_out_synth = 3, Q0_synth = ef, Q1_synth = cd, Q2_synth = ab, Q3_synth = 89
data_out_synth_delay = 0, Q0_synth_delay = ef, Q1_synth_delay = cd, Q2_synth_delay = ab, Q3_synth_delay = 89

At time               100400
CLK = 1, CLK_2 = 1, CLK_4 = 1, CLK_8 = 1, sel = 2
data_out_cond = 3, Q0_cond = ef, Q1_cond = cd, Q2_cond = ab, Q3_cond = 89,
data_out_synth = 3, Q0_synth = ef, Q1_synth = cd, Q2_synth = ab, Q3_synth = 89
data_out_synth_delay = 3, Q0_synth_delay = ef, Q1_synth_delay = cd, Q2_synth_delay = ab, Q3_synth_delay = 89

At time               105000
CLK = 0, CLK_2 = 1, CLK_4 = 1, CLK_8 = 1, sel = 2
data_out_cond = 3, Q0_cond = ef, Q1_cond = cd, Q2_cond = ab, Q3_cond = 89,
data_out_synth = 3, Q0_synth = ef, Q1_synth = cd, Q2_synth = ab, Q3_synth = 89
data_out_synth_delay = 3, Q0_synth_delay = ef, Q1_synth_delay = cd, Q2_synth_delay = ab, Q3_synth_delay = 89

At time               110000
CLK = 1, CLK_2 = 0, CLK_4 = 1, CLK_8 = 1, sel = 3
data_out_cond = f, Q0_cond = ef, Q1_cond = cd, Q2_cond = ab, Q3_cond = 89,
data_out_synth = f, Q0_synth = ef, Q1_synth = cd, Q2_synth = ab, Q3_synth = 89
data_out_synth_delay = 3, Q0_synth_delay = ef, Q1_synth_delay = cd, Q2_synth_delay = ab, Q3_synth_delay = 89

At time               110320
CLK = 1, CLK_2 = 0, CLK_4 = 1, CLK_8 = 1, sel = 3
data_out_cond = f, Q0_cond = ef, Q1_cond = cd, Q2_cond = ab, Q3_cond = 89,
data_out_synth = f, Q0_synth = ef, Q1_synth = cd, Q2_synth = ab, Q3_synth = 89
data_out_synth_delay = f, Q0_synth_delay = ef, Q1_synth_delay = cd, Q2_synth_delay = ab, Q3_synth_delay = 89

At time               115000
CLK = 0, CLK_2 = 0, CLK_4 = 1, CLK_8 = 1, sel = 3
data_out_cond = f, Q0_cond = ef, Q1_cond = cd, Q2_cond = ab, Q3_cond = 89,
data_out_synth = f, Q0_synth = ef, Q1_synth = cd, Q2_synth = ab, Q3_synth = 89
data_out_synth_delay = f, Q0_synth_delay = ef, Q1_synth_delay = cd, Q2_synth_delay = ab, Q3_synth_delay = 89

At time               120000
CLK = 1, CLK_2 = 1, CLK_4 = 0, CLK_8 = 1, sel = 4
data_out_cond = 0, Q0_cond = ef, Q1_cond = cd, Q2_cond = ab, Q3_cond = 89,
data_out_synth = 0, Q0_synth = ef, Q1_synth = cd, Q2_synth = ab, Q3_synth = 89
data_out_synth_delay = f, Q0_synth_delay = ef, Q1_synth_delay = cd, Q2_synth_delay = ab, Q3_synth_delay = 89

At time               120160
CLK = 1, CLK_2 = 1, CLK_4 = 0, CLK_8 = 1, sel = 4
data_out_cond = 0, Q0_cond = ef, Q1_cond = cd, Q2_cond = ab, Q3_cond = 89,
data_out_synth = 0, Q0_synth = ef, Q1_synth = cd, Q2_synth = ab, Q3_synth = 89
data_out_synth_delay = 0, Q0_synth_delay = ef, Q1_synth_delay = cd, Q2_synth_delay = ab, Q3_synth_delay = 89

At time               120240
CLK = 1, CLK_2 = 1, CLK_4 = 0, CLK_8 = 1, sel = 4
data_out_cond = 0, Q0_cond = ef, Q1_cond = cd, Q2_cond = ab, Q3_cond = 89,
data_out_synth = 0, Q0_synth = ef, Q1_synth = cd, Q2_synth = ab, Q3_synth = 89
data_out_synth_delay = 5, Q0_synth_delay = ef, Q1_synth_delay = cd, Q2_synth_delay = ab, Q3_synth_delay = 89

At time               120320
CLK = 1, CLK_2 = 1, CLK_4 = 0, CLK_8 = 1, sel = 4
data_out_cond = 0, Q0_cond = ef, Q1_cond = cd, Q2_cond = ab, Q3_cond = 89,
data_out_synth = 0, Q0_synth = ef, Q1_synth = cd, Q2_synth = ab, Q3_synth = 89
data_out_synth_delay = 0, Q0_synth_delay = ef, Q1_synth_delay = cd, Q2_synth_delay = ab, Q3_synth_delay = 89

At time               120400
CLK = 1, CLK_2 = 1, CLK_4 = 0, CLK_8 = 1, sel = 4
data_out_cond = 0, Q0_cond = ef, Q1_cond = cd, Q2_cond = ab, Q3_cond = 89,
data_out_synth = 0, Q0_synth = ef, Q1_synth = cd, Q2_synth = ab, Q3_synth = 89
data_out_synth_delay = f, Q0_synth_delay = ef, Q1_synth_delay = cd, Q2_synth_delay = ab, Q3_synth_delay = 89

At time               120560
CLK = 1, CLK_2 = 1, CLK_4 = 0, CLK_8 = 1, sel = 4
data_out_cond = 0, Q0_cond = ef, Q1_cond = cd, Q2_cond = ab, Q3_cond = 89,
data_out_synth = 0, Q0_synth = ef, Q1_synth = cd, Q2_synth = ab, Q3_synth = 89
data_out_synth_delay = 0, Q0_synth_delay = ef, Q1_synth_delay = cd, Q2_synth_delay = ab, Q3_synth_delay = 89

At time               125000
CLK = 0, CLK_2 = 1, CLK_4 = 0, CLK_8 = 1, sel = 4
data_out_cond = 0, Q0_cond = ef, Q1_cond = cd, Q2_cond = ab, Q3_cond = 89,
data_out_synth = 0, Q0_synth = ef, Q1_synth = cd, Q2_synth = ab, Q3_synth = 89
data_out_synth_delay = 0, Q0_synth_delay = ef, Q1_synth_delay = cd, Q2_synth_delay = ab, Q3_synth_delay = 89

At time               130000
CLK = 1, CLK_2 = 0, CLK_4 = 0, CLK_8 = 1, sel = 5
data_out_cond = 5, Q0_cond = ef, Q1_cond = cd, Q2_cond = ab, Q3_cond = 89,
data_out_synth = 5, Q0_synth = ef, Q1_synth = cd, Q2_synth = ab, Q3_synth = 89
data_out_synth_delay = 0, Q0_synth_delay = ef, Q1_synth_delay = cd, Q2_synth_delay = ab, Q3_synth_delay = 89

At time               130320
CLK = 1, CLK_2 = 0, CLK_4 = 0, CLK_8 = 1, sel = 5
data_out_cond = 5, Q0_cond = ef, Q1_cond = cd, Q2_cond = ab, Q3_cond = 89,
data_out_synth = 5, Q0_synth = ef, Q1_synth = cd, Q2_synth = ab, Q3_synth = 89
data_out_synth_delay = 5, Q0_synth_delay = ef, Q1_synth_delay = cd, Q2_synth_delay = ab, Q3_synth_delay = 89

At time               135000
CLK = 0, CLK_2 = 0, CLK_4 = 0, CLK_8 = 1, sel = 5
data_out_cond = 5, Q0_cond = ef, Q1_cond = cd, Q2_cond = ab, Q3_cond = 89,
data_out_synth = 5, Q0_synth = ef, Q1_synth = cd, Q2_synth = ab, Q3_synth = 89
data_out_synth_delay = 5, Q0_synth_delay = ef, Q1_synth_delay = cd, Q2_synth_delay = ab, Q3_synth_delay = 89

At time               140000
CLK = 1, CLK_2 = 1, CLK_4 = 1, CLK_8 = 0, sel = 6
data_out_cond = 3, Q0_cond = e7, Q1_cond = c5, Q2_cond = a3, Q3_cond = 81,
data_out_synth = 3, Q0_synth = e7, Q1_synth = c5, Q2_synth = a3, Q3_synth = 81
data_out_synth_delay = 5, Q0_synth_delay = ef, Q1_synth_delay = cd, Q2_synth_delay = ab, Q3_synth_delay = 89

At time               140150
CLK = 1, CLK_2 = 1, CLK_4 = 1, CLK_8 = 0, sel = 6
data_out_cond = 3, Q0_cond = e7, Q1_cond = c5, Q2_cond = a3, Q3_cond = 81,
data_out_synth = 3, Q0_synth = e7, Q1_synth = c5, Q2_synth = a3, Q3_synth = 81
data_out_synth_delay = 5, Q0_synth_delay = e7, Q1_synth_delay = c5, Q2_synth_delay = a3, Q3_synth_delay = 81

At time               140160
CLK = 1, CLK_2 = 1, CLK_4 = 1, CLK_8 = 0, sel = 6
data_out_cond = 3, Q0_cond = e7, Q1_cond = c5, Q2_cond = a3, Q3_cond = 81,
data_out_synth = 3, Q0_synth = e7, Q1_synth = c5, Q2_synth = a3, Q3_synth = 81
data_out_synth_delay = f, Q0_synth_delay = e7, Q1_synth_delay = c5, Q2_synth_delay = a3, Q3_synth_delay = 81

At time               140320
CLK = 1, CLK_2 = 1, CLK_4 = 1, CLK_8 = 0, sel = 6
data_out_cond = 3, Q0_cond = e7, Q1_cond = c5, Q2_cond = a3, Q3_cond = 81,
data_out_synth = 3, Q0_synth = e7, Q1_synth = c5, Q2_synth = a3, Q3_synth = 81
data_out_synth_delay = 0, Q0_synth_delay = e7, Q1_synth_delay = c5, Q2_synth_delay = a3, Q3_synth_delay = 81

At time               140400
CLK = 1, CLK_2 = 1, CLK_4 = 1, CLK_8 = 0, sel = 6
data_out_cond = 3, Q0_cond = e7, Q1_cond = c5, Q2_cond = a3, Q3_cond = 81,
data_out_synth = 3, Q0_synth = e7, Q1_synth = c5, Q2_synth = a3, Q3_synth = 81
data_out_synth_delay = 3, Q0_synth_delay = e7, Q1_synth_delay = c5, Q2_synth_delay = a3, Q3_synth_delay = 81

At time               145000
CLK = 0, CLK_2 = 1, CLK_4 = 1, CLK_8 = 0, sel = 6
data_out_cond = 3, Q0_cond = e7, Q1_cond = c5, Q2_cond = a3, Q3_cond = 81,
data_out_synth = 3, Q0_synth = e7, Q1_synth = c5, Q2_synth = a3, Q3_synth = 81
data_out_synth_delay = 3, Q0_synth_delay = e7, Q1_synth_delay = c5, Q2_synth_delay = a3, Q3_synth_delay = 81

At time               150000
CLK = 1, CLK_2 = 0, CLK_4 = 1, CLK_8 = 0, sel = 7
data_out_cond = f, Q0_cond = e7, Q1_cond = c5, Q2_cond = a3, Q3_cond = 81,
data_out_synth = f, Q0_synth = e7, Q1_synth = c5, Q2_synth = a3, Q3_synth = 81
data_out_synth_delay = 3, Q0_synth_delay = e7, Q1_synth_delay = c5, Q2_synth_delay = a3, Q3_synth_delay = 81

At time               150320
CLK = 1, CLK_2 = 0, CLK_4 = 1, CLK_8 = 0, sel = 7
data_out_cond = f, Q0_cond = e7, Q1_cond = c5, Q2_cond = a3, Q3_cond = 81,
data_out_synth = f, Q0_synth = e7, Q1_synth = c5, Q2_synth = a3, Q3_synth = 81
data_out_synth_delay = f, Q0_synth_delay = e7, Q1_synth_delay = c5, Q2_synth_delay = a3, Q3_synth_delay = 81

At time               155000
CLK = 0, CLK_2 = 0, CLK_4 = 1, CLK_8 = 0, sel = 7
data_out_cond = f, Q0_cond = e7, Q1_cond = c5, Q2_cond = a3, Q3_cond = 81,
data_out_synth = f, Q0_synth = e7, Q1_synth = c5, Q2_synth = a3, Q3_synth = 81
data_out_synth_delay = f, Q0_synth_delay = e7, Q1_synth_delay = c5, Q2_synth_delay = a3, Q3_synth_delay = 81

At time               160000
CLK = 1, CLK_2 = 1, CLK_4 = 0, CLK_8 = 0, sel = 0
data_out_cond = f, Q0_cond = e7, Q1_cond = c5, Q2_cond = a3, Q3_cond = 81,
data_out_synth = f, Q0_synth = e7, Q1_synth = c5, Q2_synth = a3, Q3_synth = 81
data_out_synth_delay = f, Q0_synth_delay = e7, Q1_synth_delay = c5, Q2_synth_delay = a3, Q3_synth_delay = 81

At time               160160
CLK = 1, CLK_2 = 1, CLK_4 = 0, CLK_8 = 0, sel = 0
data_out_cond = f, Q0_cond = e7, Q1_cond = c5, Q2_cond = a3, Q3_cond = 81,
data_out_synth = f, Q0_synth = e7, Q1_synth = c5, Q2_synth = a3, Q3_synth = 81
data_out_synth_delay = 0, Q0_synth_delay = e7, Q1_synth_delay = c5, Q2_synth_delay = a3, Q3_synth_delay = 81

At time               160240
CLK = 1, CLK_2 = 1, CLK_4 = 0, CLK_8 = 0, sel = 0
data_out_cond = f, Q0_cond = e7, Q1_cond = c5, Q2_cond = a3, Q3_cond = 81,
data_out_synth = f, Q0_synth = e7, Q1_synth = c5, Q2_synth = a3, Q3_synth = 81
data_out_synth_delay = 5, Q0_synth_delay = e7, Q1_synth_delay = c5, Q2_synth_delay = a3, Q3_synth_delay = 81

At time               160320
CLK = 1, CLK_2 = 1, CLK_4 = 0, CLK_8 = 0, sel = 0
data_out_cond = f, Q0_cond = e7, Q1_cond = c5, Q2_cond = a3, Q3_cond = 81,
data_out_synth = f, Q0_synth = e7, Q1_synth = c5, Q2_synth = a3, Q3_synth = 81
data_out_synth_delay = 0, Q0_synth_delay = e7, Q1_synth_delay = c5, Q2_synth_delay = a3, Q3_synth_delay = 81

At time               160560
CLK = 1, CLK_2 = 1, CLK_4 = 0, CLK_8 = 0, sel = 0
data_out_cond = f, Q0_cond = e7, Q1_cond = c5, Q2_cond = a3, Q3_cond = 81,
data_out_synth = f, Q0_synth = e7, Q1_synth = c5, Q2_synth = a3, Q3_synth = 81
data_out_synth_delay = f, Q0_synth_delay = e7, Q1_synth_delay = c5, Q2_synth_delay = a3, Q3_synth_delay = 81

At time               165000
CLK = 0, CLK_2 = 1, CLK_4 = 0, CLK_8 = 0, sel = 0
data_out_cond = f, Q0_cond = e7, Q1_cond = c5, Q2_cond = a3, Q3_cond = 81,
data_out_synth = f, Q0_synth = e7, Q1_synth = c5, Q2_synth = a3, Q3_synth = 81
