proyecto-01/p2s/results.txt
VCD info: dumpfile p2s.vcd opened for output.

At time                    0
CLK = 0, CLK_2 = x, CLK_4 = x, CLK_8 = x, sel = 7
data_out_cond = x, Q0_cond = xx, Q1_cond = xx, Q2_cond = xx, Q3_cond = xx,
data_out_synth = x, Q0_synth = xx, Q1_synth = xx, Q2_synth = xx, Q3_synth = Xx
data_out_synth_delay = x, Q0_synth_delay = xx, Q1_synth_delay = xx, Q2_synth_delay = xx, Q3_synth_delay = Xx

At time                 5000
CLK = 1, CLK_2 = 0, CLK_4 = 0, CLK_8 = 0, sel = 7
data_out_cond = z, Q0_cond = zz, Q1_cond = zz, Q2_cond = zz, Q3_cond = zz,
data_out_synth = X, Q0_synth = 00, Q1_synth = 00, Q2_synth = 00, Q3_synth = Z0
data_out_synth_delay = x, Q0_synth_delay = xx, Q1_synth_delay = xx, Q2_synth_delay = xx, Q3_synth_delay = Xx

At time                 5150
CLK = 1, CLK_2 = 0, CLK_4 = 0, CLK_8 = 0, sel = 7
data_out_cond = z, Q0_cond = zz, Q1_cond = zz, Q2_cond = zz, Q3_cond = zz,
data_out_synth = X, Q0_synth = 00, Q1_synth = 00, Q2_synth = 00, Q3_synth = Z0
data_out_synth_delay = x, Q0_synth_delay = 00, Q1_synth_delay = 00, Q2_synth_delay = 00, Q3_synth_delay = Z0

At time                 5630
CLK = 1, CLK_2 = 0, CLK_4 = 0, CLK_8 = 0, sel = 7
data_out_cond = z, Q0_cond = zz, Q1_cond = zz, Q2_cond = zz, Q3_cond = zz,
data_out_synth = X, Q0_synth = 00, Q1_synth = 00, Q2_synth = 00, Q3_synth = Z0
data_out_synth_delay = X, Q0_synth_delay = 00, Q1_synth_delay = 00, Q2_synth_delay = 00, Q3_synth_delay = Z0

At time                10000
CLK = 0, CLK_2 = 0, CLK_4 = 0, CLK_8 = 0, sel = 7
data_out_cond = z, Q0_cond = zz, Q1_cond = zz, Q2_cond = zz, Q3_cond = zz,
data_out_synth = X, Q0_synth = 00, Q1_synth = 00, Q2_synth = 00, Q3_synth = Z0
data_out_synth_delay = X, Q0_synth_delay = 00, Q1_synth_delay = 00, Q2_synth_delay = 00, Q3_synth_delay = Z0

At time                15000
CLK = 1, CLK_2 = 1, CLK_4 = 1, CLK_8 = 1, sel = 0
data_out_cond = f, Q0_cond = 67, Q1_cond = 45, Q2_cond = 23, Q3_cond = 01,
data_out_synth = f, Q0_synth = 67, Q1_synth = 45, Q2_synth = 23, Q3_synth = Z1
data_out_synth_delay = X, Q0_synth_delay = 00, Q1_synth_delay = 00, Q2_synth_delay = 00, Q3_synth_delay = Z0

At time                15150
CLK = 1, CLK_2 = 1, CLK_4 = 1, CLK_8 = 1, sel = 0
data_out_cond = f, Q0_cond = 67, Q1_cond = 45, Q2_cond = 23, Q3_cond = 01,
data_out_synth = f, Q0_synth = 67, Q1_synth = 45, Q2_synth = 23, Q3_synth = Z1
data_out_synth_delay = X, Q0_synth_delay = 67, Q1_synth_delay = 45, Q2_synth_delay = 23, Q3_synth_delay = Z1

At time                15160
CLK = 1, CLK_2 = 1, CLK_4 = 1, CLK_8 = 1, sel = 0
data_out_cond = f, Q0_cond = 67, Q1_cond = 45, Q2_cond = 23, Q3_cond = 01,
data_out_synth = f, Q0_synth = 67, Q1_synth = 45, Q2_synth = 23, Q3_synth = Z1
data_out_synth_delay = 0, Q0_synth_delay = 67, Q1_synth_delay = 45, Q2_synth_delay = 23, Q3_synth_delay = Z1

At time                15630
CLK = 1, CLK_2 = 1, CLK_4 = 1, CLK_8 = 1, sel = 0
data_out_cond = f, Q0_cond = 67, Q1_cond = 45, Q2_cond = 23, Q3_cond = 01,
data_out_synth = f, Q0_synth = 67, Q1_synth = 45, Q2_synth = 23, Q3_synth = Z1
data_out_synth_delay = f, Q0_synth_delay = 67, Q1_synth_delay = 45, Q2_synth_delay = 23, Q3_synth_delay = Z1

At time                20000
CLK = 0, CLK_2 = 1, CLK_4 = 1, CLK_8 = 1, sel = 0
data_out_cond = f, Q0_cond = 67, Q1_cond = 45, Q2_cond = 23, Q3_cond = 01,
data_out_synth = f, Q0_synth = 67, Q1_synth = 45, Q2_synth = 23, Q3_synth = Z1
data_out_synth_delay = f, Q0_synth_delay = 67, Q1_synth_delay = 45, Q2_synth_delay = 23, Q3_synth_delay = Z1

At time                25000
CLK = 1, CLK_2 = 0, CLK_4 = 1, CLK_8 = 1, sel = 1
data_out_cond = 5, Q0_cond = 67, Q1_cond = 45, Q2_cond = 23, Q3_cond = 01,
data_out_synth = 5, Q0_synth = 67, Q1_synth = 45, Q2_synth = 23, Q3_synth = Z1
data_out_synth_delay = f, Q0_synth_delay = 67, Q1_synth_delay = 45, Q2_synth_delay = 23, Q3_synth_delay = Z1

At time                25400
CLK = 1, CLK_2 = 0, CLK_4 = 1, CLK_8 = 1, sel = 1
data_out_cond = 5, Q0_cond = 67, Q1_cond = 45, Q2_cond = 23, Q3_cond = 01,
data_out_synth = 5, Q0_synth = 67, Q1_synth = 45, Q2_synth = 23, Q3_synth = Z1
data_out_synth_delay = 5, Q0_synth_delay = 67, Q1_synth_delay = 45, Q2_synth_delay = 23, Q3_synth_delay = Z1

At time                30000
CLK = 0, CLK_2 = 0, CLK_4 = 1, CLK_8 = 1, sel = 1
data_out_cond = 5, Q0_cond = 67, Q1_cond = 45, Q2_cond = 23, Q3_cond = 01,
data_out_synth = 5, Q0_synth = 67, Q1_synth = 45, Q2_synth = 23, Q3_synth = Z1
data_out_synth_delay = 5, Q0_synth_delay = 67, Q1_synth_delay = 45, Q2_synth_delay = 23, Q3_synth_delay = Z1

At time                35000
CLK = 1, CLK_2 = 1, CLK_4 = 0, CLK_8 = 1, sel = 2
data_out_cond = 3, Q0_cond = 67, Q1_cond = 45, Q2_cond = 23, Q3_cond = 01,
data_out_synth = 3, Q0_synth = 67, Q1_synth = 45, Q2_synth = 23, Q3_synth = Z1
data_out_synth_delay = 5, Q0_synth_delay = 67, Q1_synth_delay = 45, Q2_synth_delay = 23, Q3_synth_delay = Z1

At time                35240
CLK = 1, CLK_2 = 1, CLK_4 = 0, CLK_8 = 1, sel = 2
data_out_cond = 3, Q0_cond = 67, Q1_cond = 45, Q2_cond = 23, Q3_cond = 01,
data_out_synth = 3, Q0_synth = 67, Q1_synth = 45, Q2_synth = 23, Q3_synth = Z1
data_out_synth_delay = 0, Q0_synth_delay = 67, Q1_synth_delay = 45, Q2_synth_delay = 23, Q3_synth_delay = Z1

At time                35400
CLK = 1, CLK_2 = 1, CLK_4 = 0, CLK_8 = 1, sel = 2
data_out_cond = 3, Q0_cond = 67, Q1_cond = 45, Q2_cond = 23, Q3_cond = 01,
data_out_synth = 3, Q0_synth = 67, Q1_synth = 45, Q2_synth = 23, Q3_synth = Z1
data_out_synth_delay = 3, Q0_synth_delay = 67, Q1_synth_delay = 45, Q2_synth_delay = 23, Q3_synth_delay = Z1

At time                40000
CLK = 0, CLK_2 = 1, CLK_4 = 0, CLK_8 = 1, sel = 2
data_out_cond = 3, Q0_cond = 67, Q1_cond = 45, Q2_cond = 23, Q3_cond = 01,
data_out_synth = 3, Q0_synth = 67, Q1_synth = 45, Q2_synth = 23, Q3_synth = Z1
data_out_synth_delay = 3, Q0_synth_delay = 67, Q1_synth_delay = 45, Q2_synth_delay = 23, Q3_synth_delay = Z1

At time                45000
CLK = 1, CLK_2 = 0, CLK_4 = 0, CLK_8 = 1, sel = 3
data_out_cond = 0, Q0_cond = 67, Q1_cond = 45, Q2_cond = 23, Q3_cond = 01,
data_out_synth = 0, Q0_synth = 67, Q1_synth = 45, Q2_synth = 23, Q3_synth = Z1
data_out_synth_delay = 3, Q0_synth_delay = 67, Q1_synth_delay = 45, Q2_synth_delay = 23, Q3_synth_delay = Z1

At time                45400
CLK = 1, CLK_2 = 0, CLK_4 = 0, CLK_8 = 1, sel = 3
data_out_cond = 0, Q0_cond = 67, Q1_cond = 45, Q2_cond = 23, Q3_cond = 01,
data_out_synth = 0, Q0_synth = 67, Q1_synth = 45, Q2_synth = 23, Q3_synth = Z1
data_out_synth_delay = 0, Q0_synth_delay = 67, Q1_synth_delay = 45, Q2_synth_delay = 23, Q3_synth_delay = Z1

At time                50000
CLK = 0, CLK_2 = 0, CLK_4 = 0, CLK_8 = 1, sel = 3
data_out_cond = 0, Q0_cond = 67, Q1_cond = 45, Q2_cond = 23, Q3_cond = 01,
data_out_synth = 0, Q0_synth = 67, Q1_synth = 45, Q2_synth = 23, Q3_synth = Z1
data_out_synth_delay = 0, Q0_synth_delay = 67, Q1_synth_delay = 45, Q2_synth_delay = 23, Q3_synth_delay = Z1

At time                55000
CLK = 1, CLK_2 = 1, CLK_4 = 1, CLK_8 = 0, sel = 4
data_out_cond = 0, Q0_cond = 67, Q1_cond = 45, Q2_cond = 23, Q3_cond = 01,
data_out_synth = 0, Q0_synth = 67, Q1_synth = 45, Q2_synth = 23, Q3_synth = Z1
data_out_synth_delay = 0, Q0_synth_delay = 67, Q1_synth_delay = 45, Q2_synth_delay = 23, Q3_synth_delay = Z1

At time                55240
CLK = 1, CLK_2 = 1, CLK_4 = 1, CLK_8 = 0, sel = 4
data_out_cond = 0, Q0_cond = 67, Q1_cond = 45, Q2_cond = 23, Q3_cond = 01,
data_out_synth = 0, Q0_synth = 67, Q1_synth = 45, Q2_synth = 23, Q3_synth = Z1
data_out_synth_delay = 5, Q0_synth_delay = 67, Q1_synth_delay = 45, Q2_synth_delay = 23, Q3_synth_delay = Z1

At time                55320
CLK = 1, CLK_2 = 1, CLK_4 = 1, CLK_8 = 0, sel = 4
data_out_cond = 0, Q0_cond = 67, Q1_cond = 45, Q2_cond = 23, Q3_cond = 01,
data_out_synth = 0, Q0_synth = 67, Q1_synth = 45, Q2_synth = 23, Q3_synth = Z1
data_out_synth_delay = 0, Q0_synth_delay = 67, Q1_synth_delay = 45, Q2_synth_delay = 23, Q3_synth_delay = Z1

At time                55400
CLK = 1, CLK_2 = 1, CLK_4 = 1, CLK_8 = 0, sel = 4
data_out_cond = 0, Q0_cond = 67, Q1_cond = 45, Q2_cond = 23, Q3_cond = 01,
data_out_synth = 0, Q0_synth = 67, Q1_synth = 45, Q2_synth = 23, Q3_synth = Z1
data_out_synth_delay = f, Q0_synth_delay = 67, Q1_synth_delay = 45, Q2_synth_delay = 23, Q3_synth_delay = Z1

At time                55560
CLK = 1, CLK_2 = 1, CLK_4 = 1, CLK_8 = 0, sel = 4
data_out_cond = 0, Q0_cond = 67, Q1_cond = 45, Q2_cond = 23, Q3_cond = 01,
data_out_synth = 0, Q0_synth = 67, Q1_synth = 45, Q2_synth = 23, Q3_synth = Z1
data_out_synth_delay = 0, Q0_synth_delay = 67, Q1_synth_delay = 45, Q2_synth_delay = 23, Q3_synth_delay = Z1

At time                60000
CLK = 0, CLK_2 = 1, CLK_4 = 1, CLK_8 = 0, sel = 4
data_out_cond = 0, Q0_cond = 67, Q1_cond = 45, Q2_cond = 23, Q3_cond = 01,
data_out_synth = 0, Q0_synth = 67, Q1_synth = 45, Q2_synth = 23, Q3_synth = Z1
data_out_synth_delay = 0, Q0_synth_delay = 67, Q1_synth_delay = 45, Q2_synth_delay = 23, Q3_synth_delay = Z1

At time                65000
CLK = 1, CLK_2 = 0, CLK_4 = 1, CLK_8 = 0, sel = 5
data_out_cond = 5, Q0_cond = 67, Q1_cond = 45, Q2_cond = 23, Q3_cond = 01,
data_out_synth = 5, Q0_synth = 67, Q1_synth = 45, Q2_synth = 23, Q3_synth = Z1
data_out_synth_delay = 0, Q0_synth_delay = 67, Q1_synth_delay = 45, Q2_synth_delay = 23, Q3_synth_delay = Z1

At time                65320
CLK = 1, CLK_2 = 0, CLK_4 = 1, CLK_8 = 0, sel = 5
data_out_cond = 5, Q0_cond = 67, Q1_cond = 45, Q2_cond = 23, Q3_cond = 01,
data_out_synth = 5, Q0_synth = 67, Q1_synth = 45, Q2_synth = 23, Q3_synth = Z1
data_out_synth_delay = 5, Q0_synth_delay = 67, Q1_synth_delay = 45, Q2_synth_delay = 23, Q3_synth_delay = Z1

At time                70000
CLK = 0, CLK_2 = 0, CLK_4 = 1, CLK_8 = 0, sel = 5
data_out_cond = 5, Q0_cond = 67, Q1_cond = 45, Q2_cond = 23, Q3_cond = 01,
data_out_synth = 5, Q0_synth = 67, Q1_synth = 45, Q2_synth = 23, Q3_synth = Z1
data_out_synth_delay = 5, Q0_synth_delay = 67, Q1_synth_delay = 45, Q2_synth_delay = 23, Q3_synth_delay = Z1

At time                75000
CLK = 1, CLK_2 = 1, CLK_4 = 0, CLK_8 = 0, sel = 6
data_out_cond = 3, Q0_cond = 67, Q1_cond = 45, Q2_cond = 23, Q3_cond = 01,
data_out_synth = 3, Q0_synth = 67, Q1_synth = 45, Q2_synth = 23, Q3_synth = Z1
data_out_synth_delay = 5, Q0_synth_delay = 67, Q1_synth_delay = 45, Q2_synth_delay = 23, Q3_synth_delay = Z1

At time                75160
CLK = 1, CLK_2 = 1, CLK_4 = 0, CLK_8 = 0, sel = 6
data_out_cond = 3, Q0_cond = 67, Q1_cond = 45, Q2_cond = 23, Q3_cond = 01,
data_out_synth = 3, Q0_synth = 67, Q1_synth = 45, Q2_synth = 23, Q3_synth = Z1
data_out_synth_delay = X, Q0_synth_delay = 67, Q1_synth_delay = 45, Q2_synth_delay = 23, Q3_synth_delay = Z1

At time                75240
CLK = 1, CLK_2 = 1, CLK_4 = 0, CLK_8 = 0, sel = 6
data_out_cond = 3, Q0_cond = 67, Q1_cond = 45, Q2_cond = 23, Q3_cond = 01,
data_out_synth = 3, Q0_synth = 67, Q1_synth = 45, Q2_synth = 23, Q3_synth = Z1
data_out_synth_delay = X, Q0_synth_delay = 67, Q1_synth_delay = 45, Q2_synth_delay = 23, Q3_synth_delay = Z1

At time                75320
CLK = 1, CLK_2 = 1, CLK_4 = 0, CLK_8 = 0, sel = 6
data_out_cond = 3, Q0_cond = 67, Q1_cond = 45, Q2_cond = 23, Q3_cond = 01,
data_out_synth = 3, Q0_synth = 67, Q1_synth = 45, Q2_synth = 23, Q3_synth = Z1
data_out_synth_delay = 0, Q0_synth_delay = 67, Q1_synth_delay = 45, Q2_synth_delay = 23, Q3_synth_delay = Z1

At time                75400
CLK = 1, CLK_2 = 1, CLK_4 = 0, CLK_8 = 0, sel = 6
data_out_cond = 3, Q0_cond = 67, Q1_cond = 45, Q2_cond = 23, Q3_cond = 01,
data_out_synth = 3, Q0_synth = 67, Q1_synth = 45, Q2_synth = 23, Q3_synth = Z1
data_out_synth_delay = 3, Q0_synth_delay = 67, Q1_synth_delay = 45, Q2_synth_delay = 23, Q3_synth_delay = Z1

At time                80000
CLK = 0, CLK_2 = 1, CLK_4 = 0, CLK_8 = 0, sel = 6
data_out_cond = 3, Q0_cond = 67, Q1_cond = 45, Q2_cond = 23, Q3_cond = 01,
data_out_synth = 3, Q0_synth = 67, Q1_synth = 45, Q2_synth = 23, Q3_synth = Z1
data_out_synth_delay = 3, Q0_synth_delay = 67, Q1_synth_delay = 45, Q2_synth_delay = 23, Q3_synth_delay = Z1

At time                85000
CLK = 1, CLK_2 = 0, CLK_4 = 0, CLK_8 = 0, sel = 7
data_out_cond = 0, Q0_cond = 67, Q1_cond = 45, Q2_cond = 23, Q3_cond = 01,
data_out_synth = X, Q0_synth = 67, Q1_synth = 45, Q2_synth = 23, Q3_synth = Z1
data_out_synth_delay = 3, Q0_synth_delay = 67, Q1_synth_delay = 45, Q2_synth_delay = 23, Q3_synth_delay = Z1

At time                85320
CLK = 1, CLK_2 = 0, CLK_4 = 0, CLK_8 = 0, sel = 7
data_out_cond = 0, Q0_cond = 67, Q1_cond = 45, Q2_cond = 23, Q3_cond = 01,
data_out_synth = X, Q0_synth = 67, Q1_synth = 45, Q2_synth = 23, Q3_synth = Z1
data_out_synth_delay = X, Q0_synth_delay = 67, Q1_synth_delay = 45, Q2_synth_delay = 23, Q3_synth_delay = Z1

At time                85400
CLK = 1, CLK_2 = 0, CLK_4 = 0, CLK_8 = 0, sel = 7
data_out_cond = 0, Q0_cond = 67, Q1_cond = 45, Q2_cond = 23, Q3_cond = 01,
data_out_synth = X, Q0_synth = 67, Q1_synth = 45, Q2_synth = 23, Q3_synth = Z1
data_out_synth_delay = X, Q0_synth_delay = 67, Q1_synth_delay = 45, Q2_synth_delay = 23, Q3_synth_delay = Z1

At time                90000
CLK = 0, CLK_2 = 0, CLK_4 = 0, CLK_8 = 0, sel = 7
data_out_cond = 0, Q0_cond = 67, Q1_cond = 45, Q2_cond = 23, Q3_cond = 01,
data_out_synth = X, Q0_synth = 67, Q1_synth = 45, Q2_synth = 23, Q3_synth = Z1
data_out_synth_delay = X, Q0_synth_delay = 67, Q1_synth_delay = 45, Q2_synth_delay = 23, Q3_synth_delay = Z1

At time                95000
CLK = 1, CLK_2 = 1, CLK_4 = 1, CLK_8 = 1, sel = 0
data_out_cond = f, Q0_cond = ef, Q1_cond = cd, Q2_cond = ab, Q3_cond = 89,
data_out_synth = f, Q0_synth = ef, Q1_synth = cd, Q2_synth = ab, Q3_synth = Z9
data_out_synth_delay = X, Q0_synth_delay = 67, Q1_synth_delay = 45, Q2_synth_delay = 23, Q3_synth_delay = Z1

At time                95150
CLK = 1, CLK_2 = 1, CLK_4 = 1, CLK_8 = 1, sel = 0
data_out_cond = f, Q0_cond = ef, Q1_cond = cd, Q2_cond = ab, Q3_cond = 89,
data_out_synth = f, Q0_synth = ef, Q1_synth = cd, Q2_synth = ab, Q3_synth = Z9
data_out_synth_delay = X, Q0_synth_delay = ef, Q1_synth_delay = cd, Q2_synth_delay = ab, Q3_synth_delay = Z9

At time                95160
CLK = 1, CLK_2 = 1, CLK_4 = 1, CLK_8 = 1, sel = 0
data_out_cond = f, Q0_cond = ef, Q1_cond = cd, Q2_cond = ab, Q3_cond = 89,
data_out_synth = f, Q0_synth = ef, Q1_synth = cd, Q2_synth = ab, Q3_synth = Z9
data_out_synth_delay = 0, Q0_synth_delay = ef, Q1_synth_delay = cd, Q2_synth_delay = ab, Q3_synth_delay = Z9

At time                95240
CLK = 1, CLK_2 = 1, CLK_4 = 1, CLK_8 = 1, sel = 0
data_out_cond = f, Q0_cond = ef, Q1_cond = cd, Q2_cond = ab, Q3_cond = 89,
data_out_synth = f, Q0_synth = ef, Q1_synth = cd, Q2_synth = ab, Q3_synth = Z9
data_out_synth_delay = 5, Q0_synth_delay = ef, Q1_synth_delay = cd, Q2_synth_delay = ab, Q3_synth_delay = Z9

At time                95320
CLK = 1, CLK_2 = 1, CLK_4 = 1, CLK_8 = 1, sel = 0
data_out_cond = f, Q0_cond = ef, Q1_cond = cd, Q2_cond = ab, Q3_cond = 89,
data_out_synth = f, Q0_synth = ef, Q1_synth = cd, Q2_synth = ab, Q3_synth = Z9
data_out_synth_delay = 0, Q0_synth_delay = ef, Q1_synth_delay = cd, Q2_synth_delay = ab, Q3_synth_delay = Z9

At time                95560
CLK = 1, CLK_2 = 1, CLK_4 = 1, CLK_8 = 1, sel = 0
data_out_cond = f, Q0_cond = ef, Q1_cond = cd, Q2_cond = ab, Q3_cond = 89,
data_out_synth = f, Q0_synth = ef, Q1_synth = cd, Q2_synth = ab, Q3_synth = Z9
data_out_synth_delay = f, Q0_synth_delay = ef, Q1_synth_delay = cd, Q2_synth_delay = ab, Q3_synth_delay = Z9

At time               100000
CLK = 0, CLK_2 = 1, CLK_4 = 1, CLK_8 = 1, sel = 0
data_out_cond = f, Q0_cond = ef, Q1_cond = cd, Q2_cond = ab, Q3_cond = 89,
data_out_synth = f, Q0_synth = ef, Q1_synth = cd, Q2_synth = ab, Q3_synth = Z9
data_out_synth_delay = f, Q0_synth_delay = ef, Q1_synth_delay = cd, Q2_synth_delay = ab, Q3_synth_delay = Z9

At time               105000
CLK = 1, CLK_2 = 0, CLK_4 = 1, CLK_8 = 1, sel = 1
data_out_cond = 5, Q0_cond = ef, Q1_cond = cd, Q2_cond = ab, Q3_cond = 89,
data_out_synth = 5, Q0_synth = ef, Q1_synth = cd, Q2_synth = ab, Q3_synth = Z9
data_out_synth_delay = f, Q0_synth_delay = ef, Q1_synth_delay = cd, Q2_synth_delay = ab, Q3_synth_delay = Z9

At time               105400
CLK = 1, CLK_2 = 0, CLK_4 = 1, CLK_8 = 1, sel = 1
data_out_cond = 5, Q0_cond = ef, Q1_cond = cd, Q2_cond = ab, Q3_cond = 89,
data_out_synth = 5, Q0_synth = ef, Q1_synth = cd, Q2_synth = ab, Q3_synth = Z9
data_out_synth_delay = 5, Q0_synth_delay = ef, Q1_synth_delay = cd, Q2_synth_delay = ab, Q3_synth_delay = Z9

At time               110000
CLK = 0, CLK_2 = 0, CLK_4 = 1, CLK_8 = 1, sel = 1
data_out_cond = 5, Q0_cond = ef, Q1_cond = cd, Q2_cond = ab, Q3_cond = 89,
data_out_synth = 5, Q0_synth = ef, Q1_synth = cd, Q2_synth = ab, Q3_synth = Z9
data_out_synth_delay = 5, Q0_synth_delay = ef, Q1_synth_delay = cd, Q2_synth_delay = ab, Q3_synth_delay = Z9

At time               115000
CLK = 1, CLK_2 = 1, CLK_4 = 0, CLK_8 = 1, sel = 2
data_out_cond = 3, Q0_cond = ef, Q1_cond = cd, Q2_cond = ab, Q3_cond = 89,
data_out_synth = 3, Q0_synth = ef, Q1_synth = cd, Q2_synth = ab, Q3_synth = Z9
data_out_synth_delay = 5, Q0_synth_delay = ef, Q1_synth_delay = cd, Q2_synth_delay = ab, Q3_synth_delay = Z9

At time               115160
CLK = 1, CLK_2 = 1, CLK_4 = 0, CLK_8 = 1, sel = 2
data_out_cond = 3, Q0_cond = ef, Q1_cond = cd, Q2_cond = ab, Q3_cond = 89,
data_out_synth = 3, Q0_synth = ef, Q1_synth = cd, Q2_synth = ab, Q3_synth = Z9
data_out_synth_delay = f, Q0_synth_delay = ef, Q1_synth_delay = cd, Q2_synth_delay = ab, Q3_synth_delay = Z9

At time               115320
CLK = 1, CLK_2 = 1, CLK_4 = 0, CLK_8 = 1, sel = 2
data_out_cond = 3, Q0_cond = ef, Q1_cond = cd, Q2_cond = ab, Q3_cond = 89,
data_out_synth = 3, Q0_synth = ef, Q1_synth = cd, Q2_synth = ab, Q3_synth = Z9
data_out_synth_delay = 0, Q0_synth_delay = ef, Q1_synth_delay = cd, Q2_synth_delay = ab, Q3_synth_delay = Z9

At time               115400
CLK = 1, CLK_2 = 1, CLK_4 = 0, CLK_8 = 1, sel = 2
data_out_cond = 3, Q0_cond = ef, Q1_cond = cd, Q2_cond = ab, Q3_cond = 89,
data_out_synth = 3, Q0_synth = ef, Q1_synth = cd, Q2_synth = ab, Q3_synth = Z9
data_out_synth_delay = 3, Q0_synth_delay = ef, Q1_synth_delay = cd, Q2_synth_delay = ab, Q3_synth_delay = Z9

At time               120000
CLK = 0, CLK_2 = 1, CLK_4 = 0, CLK_8 = 1, sel = 2
data_out_cond = 3, Q0_cond = ef, Q1_cond = cd, Q2_cond = ab, Q3_cond = 89,
data_out_synth = 3, Q0_synth = ef, Q1_synth = cd, Q2_synth = ab, Q3_synth = Z9
data_out_synth_delay = 3, Q0_synth_delay = ef, Q1_synth_delay = cd, Q2_synth_delay = ab, Q3_synth_delay = Z9

At time               125000
CLK = 1, CLK_2 = 0, CLK_4 = 0, CLK_8 = 1, sel = 3
data_out_cond = f, Q0_cond = ef, Q1_cond = cd, Q2_cond = ab, Q3_cond = 89,
data_out_synth = f, Q0_synth = ef, Q1_synth = cd, Q2_synth = ab, Q3_synth = Z9
data_out_synth_delay = 3, Q0_synth_delay = ef, Q1_synth_delay = cd, Q2_synth_delay = ab, Q3_synth_delay = Z9

At time               125320
CLK = 1, CLK_2 = 0, CLK_4 = 0, CLK_8 = 1, sel = 3
data_out_cond = f, Q0_cond = ef, Q1_cond = cd, Q2_cond = ab, Q3_cond = 89,
data_out_synth = f, Q0_synth = ef, Q1_synth = cd, Q2_synth = ab, Q3_synth = Z9
data_out_synth_delay = f, Q0_synth_delay = ef, Q1_synth_delay = cd, Q2_synth_delay = ab, Q3_synth_delay = Z9

At time               130000
CLK = 0, CLK_2 = 0, CLK_4 = 0, CLK_8 = 1, sel = 3
data_out_cond = f, Q0_cond = ef, Q1_cond = cd, Q2_cond = ab, Q3_cond = 89,
data_out_synth = f, Q0_synth = ef, Q1_synth = cd, Q2_synth = ab, Q3_synth = Z9
data_out_synth_delay = f, Q0_synth_delay = ef, Q1_synth_delay = cd, Q2_synth_delay = ab, Q3_synth_delay = Z9

At time               135000
CLK = 1, CLK_2 = 1, CLK_4 = 1, CLK_8 = 0, sel = 4
data_out_cond = 0, Q0_cond = ef, Q1_cond = cd, Q2_cond = ab, Q3_cond = 89,
data_out_synth = 0, Q0_synth = ef, Q1_synth = cd, Q2_synth = ab, Q3_synth = Z9
data_out_synth_delay = f, Q0_synth_delay = ef, Q1_synth_delay = cd, Q2_synth_delay = ab, Q3_synth_delay = Z9

At time               135160
CLK = 1, CLK_2 = 1, CLK_4 = 1, CLK_8 = 0, sel = 4
data_out_cond = 0, Q0_cond = ef, Q1_cond = cd, Q2_cond = ab, Q3_cond = 89,
data_out_synth = 0, Q0_synth = ef, Q1_synth = cd, Q2_synth = ab, Q3_synth = Z9
data_out_synth_delay = 0, Q0_synth_delay = ef, Q1_synth_delay = cd, Q2_synth_delay = ab, Q3_synth_delay = Z9

At time               135240
CLK = 1, CLK_2 = 1, CLK_4 = 1, CLK_8 = 0, sel = 4
data_out_cond = 0, Q0_cond = ef, Q1_cond = cd, Q2_cond = ab, Q3_cond = 89,
data_out_synth = 0, Q0_synth = ef, Q1_synth = cd, Q2_synth = ab, Q3_synth = Z9
data_out_synth_delay = 5, Q0_synth_delay = ef, Q1_synth_delay = cd, Q2_synth_delay = ab, Q3_synth_delay = Z9

At time               135320
CLK = 1, CLK_2 = 1, CLK_4 = 1, CLK_8 = 0, sel = 4
data_out_cond = 0, Q0_cond = ef, Q1_cond = cd, Q2_cond = ab, Q3_cond = 89,
data_out_synth = 0, Q0_synth = ef, Q1_synth = cd, Q2_synth = ab, Q3_synth = Z9
data_out_synth_delay = 0, Q0_synth_delay = ef, Q1_synth_delay = cd, Q2_synth_delay = ab, Q3_synth_delay = Z9

At time               135400
CLK = 1, CLK_2 = 1, CLK_4 = 1, CLK_8 = 0, sel = 4
data_out_cond = 0, Q0_cond = ef, Q1_cond = cd, Q2_cond = ab, Q3_cond = 89,
data_out_synth = 0, Q0_synth = ef, Q1_synth = cd, Q2_synth = ab, Q3_synth = Z9
data_out_synth_delay = f, Q0_synth_delay = ef, Q1_synth_delay = cd, Q2_synth_delay = ab, Q3_synth_delay = Z9

At time               135560
CLK = 1, CLK_2 = 1, CLK_4 = 1, CLK_8 = 0, sel = 4
data_out_cond = 0, Q0_cond = ef, Q1_cond = cd, Q2_cond = ab, Q3_cond = 89,
data_out_synth = 0, Q0_synth = ef, Q1_synth = cd, Q2_synth = ab, Q3_synth = Z9
data_out_synth_delay = 0, Q0_synth_delay = ef, Q1_synth_delay = cd, Q2_synth_delay = ab, Q3_synth_delay = Z9

At time               140000
CLK = 0, CLK_2 = 1, CLK_4 = 1, CLK_8 = 0, sel = 4
data_out_cond = 0, Q0_cond = ef, Q1_cond = cd, Q2_cond = ab, Q3_cond = 89,
data_out_synth = 0, Q0_synth = ef, Q1_synth = cd, Q2_synth = ab, Q3_synth = Z9
data_out_synth_delay = 0, Q0_synth_delay = ef, Q1_synth_delay = cd, Q2_synth_delay = ab, Q3_synth_delay = Z9

At time               145000
CLK = 1, CLK_2 = 0, CLK_4 = 1, CLK_8 = 0, sel = 5
data_out_cond = 5, Q0_cond = ef, Q1_cond = cd, Q2_cond = ab, Q3_cond = 89,
data_out_synth = 5, Q0_synth = ef, Q1_synth = cd, Q2_synth = ab, Q3_synth = Z9
data_out_synth_delay = 0, Q0_synth_delay = ef, Q1_synth_delay = cd, Q2_synth_delay = ab, Q3_synth_delay = Z9

At time               145320
CLK = 1, CLK_2 = 0, CLK_4 = 1, CLK_8 = 0, sel = 5
data_out_cond = 5, Q0_cond = ef, Q1_cond = cd, Q2_cond = ab, Q3_cond = 89,
data_out_synth = 5, Q0_synth = ef, Q1_synth = cd, Q2_synth = ab, Q3_synth = Z9
data_out_synth_delay = 5, Q0_synth_delay = ef, Q1_synth_delay = cd, Q2_synth_delay = ab, Q3_synth_delay = Z9

At time               150000
CLK = 0, CLK_2 = 0, CLK_4 = 1, CLK_8 = 0, sel = 5
data_out_cond = 5, Q0_cond = ef, Q1_cond = cd, Q2_cond = ab, Q3_cond = 89,
data_out_synth = 5, Q0_synth = ef, Q1_synth = cd, Q2_synth = ab, Q3_synth = Z9
data_out_synth_delay = 5, Q0_synth_delay = ef, Q1_synth_delay = cd, Q2_synth_delay = ab, Q3_synth_delay = Z9

At time               155000
CLK = 1, CLK_2 = 1, CLK_4 = 0, CLK_8 = 0, sel = 6
data_out_cond = 3, Q0_cond = ef, Q1_cond = cd, Q2_cond = ab, Q3_cond = 89,
data_out_synth = 3, Q0_synth = ef, Q1_synth = cd, Q2_synth = ab, Q3_synth = Z9
data_out_synth_delay = 5, Q0_synth_delay = ef, Q1_synth_delay = cd, Q2_synth_delay = ab, Q3_synth_delay = Z9

At time               155160
CLK = 1, CLK_2 = 1, CLK_4 = 0, CLK_8 = 0, sel = 6
data_out_cond = 3, Q0_cond = ef, Q1_cond = cd, Q2_cond = ab, Q3_cond = 89,
data_out_synth = 3, Q0_synth = ef, Q1_synth = cd, Q2_synth = ab, Q3_synth = Z9
data_out_synth_delay = X, Q0_synth_delay = ef, Q1_synth_delay = cd, Q2_synth_delay = ab, Q3_synth_delay = Z9

At time               155320
CLK = 1, CLK_2 = 1, CLK_4 = 0, CLK_8 = 0, sel = 6
