proyecto-01/s2p/results.txt
VCD info: dumpfile s2p.vcd opened for output.
WARNING: ./tester.v:35: missing argument for $monitor<%h>.

At time                    0
CLK = 0, CLK_2 = x, CLK_4 = x, CLK_8 = x, sel = xx
Q0_cond = xx, Q1_cond = xx, Q2_cond = xx, Q3_cond = xx,
Q0_synth = xx, Q1_synth = xx, Q2_synth = xx, Q3_synth = xx
Q0_synth_delay = xx, Q1_synth_delay = xx, Q2_synth_delay = xx, Q3_synth_delay = <%h>
WARNING: ./tester.v:35: missing argument for $monitor<%h>.

At time                10000
CLK = 1, CLK_2 = 0, CLK_4 = 0, CLK_8 = 0, sel = zz
Q0_cond = xx, Q1_cond = xx, Q2_cond = xx, Q3_cond = xx,
Q0_synth = xx, Q1_synth = xx, Q2_synth = xx, Q3_synth = xx
Q0_synth_delay = xx, Q1_synth_delay = xx, Q2_synth_delay = xx, Q3_synth_delay = <%h>
WARNING: ./tester.v:35: missing argument for $monitor<%h>.

At time                15000
CLK = 0, CLK_2 = 0, CLK_4 = 0, CLK_8 = 0, sel = zz
Q0_cond = xx, Q1_cond = xx, Q2_cond = xx, Q3_cond = xx,
Q0_synth = xx, Q1_synth = xx, Q2_synth = xx, Q3_synth = xx
Q0_synth_delay = xx, Q1_synth_delay = xx, Q2_synth_delay = xx, Q3_synth_delay = <%h>
WARNING: ./tester.v:35: missing argument for $monitor<%h>.

At time                20000
CLK = 1, CLK_2 = 1, CLK_4 = 1, CLK_8 = 1, sel = xx
Q0_cond = xx, Q1_cond = xx, Q2_cond = xx, Q3_cond = xx,
Q0_synth = xx, Q1_synth = xx, Q2_synth = xx, Q3_synth = xx
Q0_synth_delay = xx, Q1_synth_delay = xx, Q2_synth_delay = xx, Q3_synth_delay = <%h>
WARNING: ./tester.v:35: missing argument for $monitor<%h>.

At time                25000
CLK = 0, CLK_2 = 1, CLK_4 = 1, CLK_8 = 1, sel = xx
Q0_cond = xx, Q1_cond = xx, Q2_cond = xx, Q3_cond = xx,
Q0_synth = xx, Q1_synth = xx, Q2_synth = xx, Q3_synth = xx
Q0_synth_delay = xx, Q1_synth_delay = xx, Q2_synth_delay = xx, Q3_synth_delay = <%h>
WARNING: ./tester.v:35: missing argument for $monitor<%h>.

At time                30000
CLK = 1, CLK_2 = 0, CLK_4 = 1, CLK_8 = 1, sel = xX
Q0_cond = xx, Q1_cond = xx, Q2_cond = xx, Q3_cond = xx,
Q0_synth = xx, Q1_synth = xx, Q2_synth = xx, Q3_synth = xx
Q0_synth_delay = xx, Q1_synth_delay = xx, Q2_synth_delay = xx, Q3_synth_delay = <%h>
WARNING: ./tester.v:35: missing argument for $monitor<%h>.

At time                35000
CLK = 0, CLK_2 = 0, CLK_4 = 1, CLK_8 = 1, sel = xX
Q0_cond = xx, Q1_cond = xx, Q2_cond = xx, Q3_cond = xx,
Q0_synth = xx, Q1_synth = xx, Q2_synth = xx, Q3_synth = xx
Q0_synth_delay = xx, Q1_synth_delay = xx, Q2_synth_delay = xx, Q3_synth_delay = <%h>
WARNING: ./tester.v:35: missing argument for $monitor<%h>.

At time                40000
CLK = 1, CLK_2 = 1, CLK_4 = 0, CLK_8 = 1, sel = xX
Q0_cond = xx, Q1_cond = xx, Q2_cond = xx, Q3_cond = xx,
Q0_synth = xx, Q1_synth = xx, Q2_synth = xx, Q3_synth = xx
Q0_synth_delay = xx, Q1_synth_delay = xx, Q2_synth_delay = xx, Q3_synth_delay = <%h>
WARNING: ./tester.v:35: missing argument for $monitor<%h>.

At time                45000
CLK = 0, CLK_2 = 1, CLK_4 = 0, CLK_8 = 1, sel = xX
Q0_cond = xx, Q1_cond = xx, Q2_cond = xx, Q3_cond = xx,
Q0_synth = xx, Q1_synth = xx, Q2_synth = xx, Q3_synth = xx
Q0_synth_delay = xx, Q1_synth_delay = xx, Q2_synth_delay = xx, Q3_synth_delay = <%h>
WARNING: ./tester.v:35: missing argument for $monitor<%h>.

At time                50000
CLK = 1, CLK_2 = 0, CLK_4 = 0, CLK_8 = 1, sel = xX
Q0_cond = xx, Q1_cond = xx, Q2_cond = xx, Q3_cond = xx,
Q0_synth = xx, Q1_synth = xx, Q2_synth = xx, Q3_synth = xx
Q0_synth_delay = xx, Q1_synth_delay = xx, Q2_synth_delay = xx, Q3_synth_delay = <%h>
WARNING: ./tester.v:35: missing argument for $monitor<%h>.

At time                55000
CLK = 0, CLK_2 = 0, CLK_4 = 0, CLK_8 = 1, sel = xX
Q0_cond = xx, Q1_cond = xx, Q2_cond = xx, Q3_cond = xx,
Q0_synth = xx, Q1_synth = xx, Q2_synth = xx, Q3_synth = xx
Q0_synth_delay = xx, Q1_synth_delay = xx, Q2_synth_delay = xx, Q3_synth_delay = <%h>
WARNING: ./tester.v:35: missing argument for $monitor<%h>.

At time                60000
CLK = 1, CLK_2 = 1, CLK_4 = 1, CLK_8 = 0, sel = xX
Q0_cond = xx, Q1_cond = xx, Q2_cond = xx, Q3_cond = xx,
Q0_synth = xx, Q1_synth = xx, Q2_synth = xx, Q3_synth = xx
Q0_synth_delay = xx, Q1_synth_delay = xx, Q2_synth_delay = xx, Q3_synth_delay = <%h>
WARNING: ./tester.v:35: missing argument for $monitor<%h>.

At time                65000
CLK = 0, CLK_2 = 1, CLK_4 = 1, CLK_8 = 0, sel = xX
Q0_cond = xx, Q1_cond = xx, Q2_cond = xx, Q3_cond = xx,
Q0_synth = xx, Q1_synth = xx, Q2_synth = xx, Q3_synth = xx
Q0_synth_delay = xx, Q1_synth_delay = xx, Q2_synth_delay = xx, Q3_synth_delay = <%h>
WARNING: ./tester.v:35: missing argument for $monitor<%h>.

At time                70000
CLK = 1, CLK_2 = 0, CLK_4 = 1, CLK_8 = 0, sel = xX
Q0_cond = xx, Q1_cond = xx, Q2_cond = xx, Q3_cond = xx,
Q0_synth = xx, Q1_synth = xx, Q2_synth = xx, Q3_synth = xx
Q0_synth_delay = xx, Q1_synth_delay = xx, Q2_synth_delay = xx, Q3_synth_delay = <%h>
WARNING: ./tester.v:35: missing argument for $monitor<%h>.

At time                75000
CLK = 0, CLK_2 = 0, CLK_4 = 1, CLK_8 = 0, sel = xX
Q0_cond = xx, Q1_cond = xx, Q2_cond = xx, Q3_cond = xx,
Q0_synth = xx, Q1_synth = xx, Q2_synth = xx, Q3_synth = xx
Q0_synth_delay = xx, Q1_synth_delay = xx, Q2_synth_delay = xx, Q3_synth_delay = <%h>
WARNING: ./tester.v:35: missing argument for $monitor<%h>.

At time                80000
CLK = 1, CLK_2 = 1, CLK_4 = 0, CLK_8 = 0, sel = xX
Q0_cond = xx, Q1_cond = xx, Q2_cond = xx, Q3_cond = xx,
Q0_synth = xx, Q1_synth = xx, Q2_synth = xx, Q3_synth = xx
Q0_synth_delay = xx, Q1_synth_delay = xx, Q2_synth_delay = xx, Q3_synth_delay = <%h>
WARNING: ./tester.v:35: missing argument for $monitor<%h>.

At time                85000
CLK = 0, CLK_2 = 1, CLK_4 = 0, CLK_8 = 0, sel = xX
Q0_cond = xx, Q1_cond = xx, Q2_cond = xx, Q3_cond = xx,
Q0_synth = xx, Q1_synth = xx, Q2_synth = xx, Q3_synth = xx
Q0_synth_delay = xx, Q1_synth_delay = xx, Q2_synth_delay = xx, Q3_synth_delay = <%h>
WARNING: ./tester.v:35: missing argument for $monitor<%h>.

At time                90000
CLK = 1, CLK_2 = 0, CLK_4 = 0, CLK_8 = 0, sel = xX
Q0_cond = xx, Q1_cond = xx, Q2_cond = xx, Q3_cond = xx,
Q0_synth = xx, Q1_synth = xx, Q2_synth = xx, Q3_synth = xx
Q0_synth_delay = xx, Q1_synth_delay = xx, Q2_synth_delay = xx, Q3_synth_delay = <%h>
WARNING: ./tester.v:35: missing argument for $monitor<%h>.

At time                95000
CLK = 0, CLK_2 = 0, CLK_4 = 0, CLK_8 = 0, sel = xX
Q0_cond = xx, Q1_cond = xx, Q2_cond = xx, Q3_cond = xx,
Q0_synth = xx, Q1_synth = xx, Q2_synth = xx, Q3_synth = xx
Q0_synth_delay = xx, Q1_synth_delay = xx, Q2_synth_delay = xx, Q3_synth_delay = <%h>
WARNING: ./tester.v:35: missing argument for $monitor<%h>.

At time               100000
CLK = 1, CLK_2 = 1, CLK_4 = 1, CLK_8 = 1, sel = xX
Q0_cond = xX, Q1_cond = xX, Q2_cond = xX, Q3_cond = xX,
Q0_synth = xX, Q1_synth = xX, Q2_synth = xX, Q3_synth = xx
Q0_synth_delay = xx, Q1_synth_delay = xx, Q2_synth_delay = xx, Q3_synth_delay = <%h>
WARNING: ./tester.v:35: missing argument for $monitor<%h>.

At time               100150
CLK = 1, CLK_2 = 1, CLK_4 = 1, CLK_8 = 1, sel = xX
Q0_cond = xX, Q1_cond = xX, Q2_cond = xX, Q3_cond = xX,
Q0_synth = xX, Q1_synth = xX, Q2_synth = xX, Q3_synth = xX
Q0_synth_delay = xX, Q1_synth_delay = xX, Q2_synth_delay = xX, Q3_synth_delay = <%h>
WARNING: ./tester.v:35: missing argument for $monitor<%h>.

At time               105000
CLK = 0, CLK_2 = 1, CLK_4 = 1, CLK_8 = 1, sel = xX
Q0_cond = xX, Q1_cond = xX, Q2_cond = xX, Q3_cond = xX,
Q0_synth = xX, Q1_synth = xX, Q2_synth = xX, Q3_synth = xX
Q0_synth_delay = xX, Q1_synth_delay = xX, Q2_synth_delay = xX, Q3_synth_delay = <%h>
WARNING: ./tester.v:35: missing argument for $monitor<%h>.

At time               110000
CLK = 1, CLK_2 = 0, CLK_4 = 1, CLK_8 = 1, sel = xX
Q0_cond = xX, Q1_cond = xX, Q2_cond = xX, Q3_cond = xX,
Q0_synth = xX, Q1_synth = xX, Q2_synth = xX, Q3_synth = xX
Q0_synth_delay = xX, Q1_synth_delay = xX, Q2_synth_delay = xX, Q3_synth_delay = <%h>
WARNING: ./tester.v:35: missing argument for $monitor<%h>.

At time               115000
CLK = 0, CLK_2 = 0, CLK_4 = 1, CLK_8 = 1, sel = xX
Q0_cond = xX, Q1_cond = xX, Q2_cond = xX, Q3_cond = xX,
Q0_synth = xX, Q1_synth = xX, Q2_synth = xX, Q3_synth = xX
Q0_synth_delay = xX, Q1_synth_delay = xX, Q2_synth_delay = xX, Q3_synth_delay = <%h>
WARNING: ./tester.v:35: missing argument for $monitor<%h>.

At time               120000
CLK = 1, CLK_2 = 1, CLK_4 = 0, CLK_8 = 1, sel = xX
Q0_cond = xX, Q1_cond = xX, Q2_cond = xX, Q3_cond = xX,
Q0_synth = xX, Q1_synth = xX, Q2_synth = xX, Q3_synth = xX
Q0_synth_delay = xX, Q1_synth_delay = xX, Q2_synth_delay = xX, Q3_synth_delay = <%h>
WARNING: ./tester.v:35: missing argument for $monitor<%h>.

At time               125000
CLK = 0, CLK_2 = 1, CLK_4 = 0, CLK_8 = 1, sel = xX
Q0_cond = xX, Q1_cond = xX, Q2_cond = xX, Q3_cond = xX,
Q0_synth = xX, Q1_synth = xX, Q2_synth = xX, Q3_synth = xX
Q0_synth_delay = xX, Q1_synth_delay = xX, Q2_synth_delay = xX, Q3_synth_delay = <%h>
WARNING: ./tester.v:35: missing argument for $monitor<%h>.

At time               130000
CLK = 1, CLK_2 = 0, CLK_4 = 0, CLK_8 = 1, sel = xX
Q0_cond = xX, Q1_cond = xX, Q2_cond = xX, Q3_cond = xX,
Q0_synth = xX, Q1_synth = xX, Q2_synth = xX, Q3_synth = xX
Q0_synth_delay = xX, Q1_synth_delay = xX, Q2_synth_delay = xX, Q3_synth_delay = <%h>
WARNING: ./tester.v:35: missing argument for $monitor<%h>.

At time               135000
CLK = 0, CLK_2 = 0, CLK_4 = 0, CLK_8 = 1, sel = xX
Q0_cond = xX, Q1_cond = xX, Q2_cond = xX, Q3_cond = xX,
Q0_synth = xX, Q1_synth = xX, Q2_synth = xX, Q3_synth = xX
Q0_synth_delay = xX, Q1_synth_delay = xX, Q2_synth_delay = xX, Q3_synth_delay = <%h>
WARNING: ./tester.v:35: missing argument for $monitor<%h>.

At time               140000
CLK = 1, CLK_2 = 1, CLK_4 = 1, CLK_8 = 0, sel = xX
Q0_cond = xX, Q1_cond = xX, Q2_cond = xX, Q3_cond = xX,
Q0_synth = xX, Q1_synth = xX, Q2_synth = xX, Q3_synth = xX
Q0_synth_delay = xX, Q1_synth_delay = xX, Q2_synth_delay = xX, Q3_synth_delay = <%h>
WARNING: ./tester.v:35: missing argument for $monitor<%h>.

At time               145000
CLK = 0, CLK_2 = 1, CLK_4 = 1, CLK_8 = 0, sel = xX
Q0_cond = xX, Q1_cond = xX, Q2_cond = xX, Q3_cond = xX,
Q0_synth = xX, Q1_synth = xX, Q2_synth = xX, Q3_synth = xX
Q0_synth_delay = xX, Q1_synth_delay = xX, Q2_synth_delay = xX, Q3_synth_delay = <%h>
WARNING: ./tester.v:35: missing argument for $monitor<%h>.

At time               150000
CLK = 1, CLK_2 = 0, CLK_4 = 1, CLK_8 = 0, sel = xX
Q0_cond = xX, Q1_cond = xX, Q2_cond = xX, Q3_cond = xX,
Q0_synth = xX, Q1_synth = xX, Q2_synth = xX, Q3_synth = xX
Q0_synth_delay = xX, Q1_synth_delay = xX, Q2_synth_delay = xX, Q3_synth_delay = <%h>
WARNING: ./tester.v:35: missing argument for $monitor<%h>.

At time               155000
CLK = 0, CLK_2 = 0, CLK_4 = 1, CLK_8 = 0, sel = xX
Q0_cond = xX, Q1_cond = xX, Q2_cond = xX, Q3_cond = xX,
Q0_synth = xX, Q1_synth = xX, Q2_synth = xX, Q3_synth = xX
Q0_synth_delay = xX, Q1_synth_delay = xX, Q2_synth_delay = xX, Q3_synth_delay = <%h>
WARNING: ./tester.v:35: missing argument for $monitor<%h>.

At time               160000
CLK = 1, CLK_2 = 1, CLK_4 = 0, CLK_8 = 0, sel = xX
Q0_cond = xX, Q1_cond = xX, Q2_cond = xX, Q3_cond = xX,
Q0_synth = xX, Q1_synth = xX, Q2_synth = xX, Q3_synth = xX
Q0_synth_delay = xX, Q1_synth_delay = xX, Q2_synth_delay = xX, Q3_synth_delay = <%h>
WARNING: ./tester.v:35: missing argument for $monitor<%h>.

At time               165000
CLK = 0, CLK_2 = 1, CLK_4 = 0, CLK_8 = 0, sel = xX
Q0_cond = xX, Q1_cond = xX, Q2_cond = xX, Q3_cond = xX,
Q0_synth = xX, Q1_synth = xX, Q2_synth = xX, Q3_synth = xX
Q0_synth_delay = xX, Q1_synth_delay = xX, Q2_synth_delay = xX, Q3_synth_delay = <%h>
WARNING: ./tester.v:35: missing argument for $monitor<%h>.

At time               170000
CLK = 1, CLK_2 = 0, CLK_4 = 0, CLK_8 = 0, sel = xX
Q0_cond = xX, Q1_cond = xX, Q2_cond = xX, Q3_cond = xX,
Q0_synth = xX, Q1_synth = xX, Q2_synth = xX, Q3_synth = xX
Q0_synth_delay = xX, Q1_synth_delay = xX, Q2_synth_delay = xX, Q3_synth_delay = <%h>
WARNING: ./tester.v:35: missing argument for $monitor<%h>.

At time               175000
CLK = 0, CLK_2 = 0, CLK_4 = 0, CLK_8 = 0, sel = xX
Q0_cond = xX, Q1_cond = xX, Q2_cond = xX, Q3_cond = xX,
Q0_synth = xX, Q1_synth = xX, Q2_synth = xX, Q3_synth = xX
Q0_synth_delay = xX, Q1_synth_delay = xX, Q2_synth_delay = xX, Q3_synth_delay = <%h>
WARNING: ./tester.v:35: missing argument for $monitor<%h>.

At time               180000
CLK = 1, CLK_2 = 1, CLK_4 = 1, CLK_8 = 1, sel = xX
Q0_cond = xX, Q1_cond = xX, Q2_cond = xX, Q3_cond = xX,
Q0_synth = xX, Q1_synth = xX, Q2_synth = xX, Q3_synth = xX
Q0_synth_delay = xX, Q1_synth_delay = xX, Q2_synth_delay = xX, Q3_synth_delay = <%h>
WARNING: ./tester.v:35: missing argument for $monitor<%h>.

At time               180150
CLK = 1, CLK_2 = 1, CLK_4 = 1, CLK_8 = 1, sel = xX
Q0_cond = xX, Q1_cond = xX, Q2_cond = xX, Q3_cond = xX,
Q0_synth = xX, Q1_synth = xX, Q2_synth = xX, Q3_synth = xX
Q0_synth_delay = xX, Q1_synth_delay = xX, Q2_synth_delay = xX, Q3_synth_delay = <%h>
WARNING: ./tester.v:35: missing argument for $monitor<%h>.

At time               185000
CLK = 0, CLK_2 = 1, CLK_4 = 1, CLK_8 = 1, sel = xX
Q0_cond = xX, Q1_cond = xX, Q2_cond = xX, Q3_cond = xX,
Q0_synth = xX, Q1_synth = xX, Q2_synth = xX, Q3_synth = xX
Q0_synth_delay = xX, Q1_synth_delay = xX, Q2_synth_delay = xX, Q3_synth_delay = <%h>
WARNING: ./tester.v:35: missing argument for $monitor<%h>.

At time               190000
CLK = 1, CLK_2 = 0, CLK_4 = 1, CLK_8 = 1, sel = xX
Q0_cond = xX, Q1_cond = xX, Q2_cond = xX, Q3_cond = xX,
Q0_synth = xX, Q1_synth = xX, Q2_synth = xX, Q3_synth = xX
Q0_synth_delay = xX, Q1_synth_delay = xX, Q2_synth_delay = xX, Q3_synth_delay = <%h>
WARNING: ./tester.v:35: missing argument for $monitor<%h>.

At time               195000
CLK = 0, CLK_2 = 0, CLK_4 = 1, CLK_8 = 1, sel = xX
Q0_cond = xX, Q1_cond = xX, Q2_cond = xX, Q3_cond = xX,
Q0_synth = xX, Q1_synth = xX, Q2_synth = xX, Q3_synth = xX
Q0_synth_delay = xX, Q1_synth_delay = xX, Q2_synth_delay = xX, Q3_synth_delay = <%h>
WARNING: ./tester.v:35: missing argument for $monitor<%h>.

At time               200000
CLK = 1, CLK_2 = 1, CLK_4 = 0, CLK_8 = 1, sel = xX
Q0_cond = xX, Q1_cond = xX, Q2_cond = xX, Q3_cond = xX,
Q0_synth = xX, Q1_synth = xX, Q2_synth = xX, Q3_synth = xX
Q0_synth_delay = xX, Q1_synth_delay = xX, Q2_synth_delay = xX, Q3_synth_delay = <%h>
WARNING: ./tester.v:35: missing argument for $monitor<%h>.

At time               205000
CLK = 0, CLK_2 = 1, CLK_4 = 0, CLK_8 = 1, sel = xX
Q0_cond = xX, Q1_cond = xX, Q2_cond = xX, Q3_cond = xX,
Q0_synth = xX, Q1_synth = xX, Q2_synth = xX, Q3_synth = xX
Q0_synth_delay = xX, Q1_synth_delay = xX, Q2_synth_delay = xX, Q3_synth_delay = <%h>
WARNING: ./tester.v:35: missing argument for $monitor<%h>.

At time               210000
CLK = 1, CLK_2 = 0, CLK_4 = 0, CLK_8 = 1, sel = xX
Q0_cond = xX, Q1_cond = xX, Q2_cond = xX, Q3_cond = xX,
Q0_synth = xX, Q1_synth = xX, Q2_synth = xX, Q3_synth = xX
Q0_synth_delay = xX, Q1_synth_delay = xX, Q2_synth_delay = xX, Q3_synth_delay = <%h>
WARNING: ./tester.v:35: missing argument for $monitor<%h>.

At time               215000
CLK = 0, CLK_2 = 0, CLK_4 = 0, CLK_8 = 1, sel = xX
Q0_cond = xX, Q1_cond = xX, Q2_cond = xX, Q3_cond = xX,
Q0_synth = xX, Q1_synth = xX, Q2_synth = xX, Q3_synth = xX
Q0_synth_delay = xX, Q1_synth_delay = xX, Q2_synth_delay = xX, Q3_synth_delay = <%h>
WARNING: ./tester.v:35: missing argument for $monitor<%h>.

At time               220000
CLK = 1, CLK_2 = 1, CLK_4 = 1, CLK_8 = 0, sel = xX
Q0_cond = xX, Q1_cond = xX, Q2_cond = xX, Q3_cond = xX,
Q0_synth = xX, Q1_synth = xX, Q2_synth = xX, Q3_synth = xX
Q0_synth_delay = xX, Q1_synth_delay = xX, Q2_synth_delay = xX, Q3_synth_delay = <%h>
WARNING: ./tester.v:35: missing argument for $monitor<%h>.

At time               225000
CLK = 0, CLK_2 = 1, CLK_4 = 1, CLK_8 = 0, sel = xX
Q0_cond = xX, Q1_cond = xX, Q2_cond = xX, Q3_cond = xX,
Q0_synth = xX, Q1_synth = xX, Q2_synth = xX, Q3_synth = xX
Q0_synth_delay = xX, Q1_synth_delay = xX, Q2_synth_delay = xX, Q3_synth_delay = <%h>
WARNING: ./tester.v:35: missing argument for $monitor<%h>.

At time               230000
CLK = 1, CLK_2 = 0, CLK_4 = 1, CLK_8 = 0, sel = xX
Q0_cond = xX, Q1_cond = xX, Q2_cond = xX, Q3_cond = xX,
Q0_synth = xX, Q1_synth = xX, Q2_synth = xX, Q3_synth = xX
Q0_synth_delay = xX, Q1_synth_delay = xX, Q2_synth_delay = xX, Q3_synth_delay = <%h>
WARNING: ./tester.v:35: missing argument for $monitor<%h>.

At time               235000
CLK = 0, CLK_2 = 0, CLK_4 = 1, CLK_8 = 0, sel = xX
Q0_cond = xX, Q1_cond = xX, Q2_cond = xX, Q3_cond = xX,
Q0_synth = xX, Q1_synth = xX, Q2_synth = xX, Q3_synth = xX
Q0_synth_delay = xX, Q1_synth_delay = xX, Q2_synth_delay = xX, Q3_synth_delay = <%h>
WARNING: ./tester.v:35: missing argument for $monitor<%h>.

At time               240000
CLK = 1, CLK_2 = 1, CLK_4 = 0, CLK_8 = 0, sel = xX
Q0_cond = xX, Q1_cond = xX, Q2_cond = xX, Q3_cond = xX,
Q0_synth = xX, Q1_synth = xX, Q2_synth = xX, Q3_synth = xX
Q0_synth_delay = xX, Q1_synth_delay = xX, Q2_synth_delay = xX, Q3_synth_delay = <%h>
WARNING: ./tester.v:35: missing argument for $monitor<%h>.

At time               245000
CLK = 0, CLK_2 = 1, CLK_4 = 0, CLK_8 = 0, sel = xX
Q0_cond = xX, Q1_cond = xX, Q2_cond = xX, Q3_cond = xX,
Q0_synth = xX, Q1_synth = xX, Q2_synth = xX, Q3_synth = xX
Q0_synth_delay = xX, Q1_synth_delay = xX, Q2_synth_delay = xX, Q3_synth_delay = <%h>
WARNING: ./tester.v:35: missing argument for $monitor<%h>.

At time               250000
CLK = 1, CLK_2 = 0, CLK_4 = 0, CLK_8 = 0, sel = xX
Q0_cond = xX, Q1_cond = xX, Q2_cond = xX, Q3_cond = xX,
Q0_synth = xX, Q1_synth = xX, Q2_synth = xX, Q3_synth = xX
Q0_synth_delay = xX, Q1_synth_delay = xX, Q2_synth_delay = xX, Q3_synth_delay = <%h>
WARNING: ./tester.v:35: missing argument for $monitor<%h>.

At time               255000
CLK = 0, CLK_2 = 0, CLK_4 = 0, CLK_8 = 0, sel = xX
Q0_cond = xX, Q1_cond = xX, Q2_cond = xX, Q3_cond = xX,
Q0_synth = xX, Q1_synth = xX, Q2_synth = xX, Q3_synth = xX
Q0_synth_delay = xX, Q1_synth_delay = xX, Q2_synth_delay = xX, Q3_synth_delay = <%h>
WARNING: ./tester.v:35: missing argument for $monitor<%h>.

At time               260000
CLK = 1, CLK_2 = 1, CLK_4 = 1, CLK_8 = 1, sel = xX
Q0_cond = xX, Q1_cond = xX, Q2_cond = xX, Q3_cond = xX,
Q0_synth = xX, Q1_synth = xX, Q2_synth = xX, Q3_synth = xX
Q0_synth_delay = xX, Q1_synth_delay = xX, Q2_synth_delay = xX, Q3_synth_delay = <%h>
WARNING: ./tester.v:35: missing argument for $monitor<%h>.

At time               260150
CLK = 1, CLK_2 = 1, CLK_4 = 1, CLK_8 = 1, sel = xX
Q0_cond = xX, Q1_cond = xX, Q2_cond = xX, Q3_cond = xX,
Q0_synth = xX, Q1_synth = xX, Q2_synth = xX, Q3_synth = xX
Q0_synth_delay = xX, Q1_synth_delay = xX, Q2_synth_delay = xX, Q3_synth_delay = <%h>
WARNING: ./tester.v:35: missing argument for $monitor<%h>.

At time               265000
CLK = 0, CLK_2 = 1, CLK_4 = 1, CLK_8 = 1, sel = xX
Q0_cond = xX, Q1_cond = xX, Q2_cond = xX, Q3_cond = xX,
Q0_synth = xX, Q1_synth = xX, Q2_synth = xX, Q3_synth = xX
Q0_synth_delay = xX, Q1_synth_delay = xX, Q2_synth_delay = xX, Q3_synth_delay = <%h>
WARNING: ./tester.v:35: missing argument for $monitor<%h>.

At time               270000
CLK = 1, CLK_2 = 0, CLK_4 = 1, CLK_8 = 1, sel = xX
Q0_cond = xX, Q1_cond = xX, Q2_cond = xX, Q3_cond = xX,
Q0_synth = xX, Q1_synth = xX, Q2_synth = xX, Q3_synth = xX
Q0_synth_delay = xX, Q1_synth_delay = xX, Q2_synth_delay = xX, Q3_synth_delay = <%h>
WARNING: ./tester.v:35: missing argument for $monitor<%h>.

At time               275000
CLK = 0, CLK_2 = 0, CLK_4 = 1, CLK_8 = 1, sel = xX
Q0_cond = xX, Q1_cond = xX, Q2_cond = xX, Q3_cond = xX,
Q0_synth = xX, Q1_synth = xX, Q2_synth = xX, Q3_synth = xX
Q0_synth_delay = xX, Q1_synth_delay = xX, Q2_synth_delay = xX, Q3_synth_delay = <%h>
WARNING: ./tester.v:35: missing argument for $monitor<%h>.

At time               280000
CLK = 1, CLK_2 = 1, CLK_4 = 0, CLK_8 = 1, sel = xX
Q0_cond = xX, Q1_cond = xX, Q2_cond = xX, Q3_cond = xX,
Q0_synth = xX, Q1_synth = xX, Q2_synth = xX, Q3_synth = xX
Q0_synth_delay = xX, Q1_synth_delay = xX, Q2_synth_delay = xX, Q3_synth_delay = <%h>
WARNING: ./tester.v:35: missing argument for $monitor<%h>.

At time               285000
CLK = 0, CLK_2 = 1, CLK_4 = 0, CLK_8 = 1, sel = xX
Q0_cond = xX, Q1_cond = xX, Q2_cond = xX, Q3_cond = xX,
Q0_synth = xX, Q1_synth = xX, Q2_synth = xX, Q3_synth = xX
Q0_synth_delay = xX, Q1_synth_delay = xX, Q2_synth_delay = xX, Q3_synth_delay = <%h>
WARNING: ./tester.v:35: missing argument for $monitor<%h>.

At time               290000
CLK = 1, CLK_2 = 0, CLK_4 = 0, CLK_8 = 1, sel = xX
Q0_cond = xX, Q1_cond = xX, Q2_cond = xX, Q3_cond = xX,
Q0_synth = xX, Q1_synth = xX, Q2_synth = xX, Q3_synth = xX
Q0_synth_delay = xX, Q1_synth_delay = xX, Q2_synth_delay = xX, Q3_synth_delay = <%h>
WARNING: ./tester.v:35: missing argument for $monitor<%h>.

At time               295000
CLK = 0, CLK_2 = 0, CLK_4 = 0, CLK_8 = 1, sel = xX
Q0_cond = xX, Q1_cond = xX, Q2_cond = xX, Q3_cond = xX,
Q0_synth = xX, Q1_synth = xX, Q2_synth = xX, Q3_synth = xX
Q0_synth_delay = xX, Q1_synth_delay = xX, Q2_synth_delay = xX, Q3_synth_delay = <%h>
WARNING: ./tester.v:35: missing argument for $monitor<%h>.

At time               300000
CLK = 1, CLK_2 = 1, CLK_4 = 1, CLK_8 = 0, sel = xX
Q0_cond = xX, Q1_cond = xX, Q2_cond = xX, Q3_cond = xX,
Q0_synth = xX, Q1_synth = xX, Q2_synth = xX, Q3_synth = xX
Q0_synth_delay = xX, Q1_synth_delay = xX, Q2_synth_delay = xX, Q3_synth_delay = <%h>
WARNING: ./tester.v:35: missing argument for $monitor<%h>.

At time               305000
CLK = 0, CLK_2 = 1, CLK_4 = 1, CLK_8 = 0, sel = xX
Q0_cond = xX, Q1_cond = xX, Q2_cond = xX, Q3_cond = xX,
Q0_synth = xX, Q1_synth = xX, Q2_synth = xX, Q3_synth = xX
Q0_synth_delay = xX, Q1_synth_delay = xX, Q2_synth_delay = xX, Q3_synth_delay = <%h>
WARNING: ./tester.v:35: missing argument for $monitor<%h>.

At time               310000
CLK = 1, CLK_2 = 0, CLK_4 = 1, CLK_8 = 0, sel = xX
Q0_cond = xX, Q1_cond = xX, Q2_cond = xX, Q3_cond = xX,
Q0_synth = xX, Q1_synth = xX, Q2_synth = xX, Q3_synth = xX
Q0_synth_delay = xX, Q1_synth_delay = xX, Q2_synth_delay = xX, Q3_synth_delay = <%h>
WARNING: ./tester.v:35: missing argument for $monitor<%h>.

At time               315000
CLK = 0, CLK_2 = 0, CLK_4 = 1, CLK_8 = 0, sel = xX
Q0_cond = xX, Q1_cond = xX, Q2_cond = xX, Q3_cond = xX,
Q0_synth = xX, Q1_synth = xX, Q2_synth = xX, Q3_synth = xX
Q0_synth_delay = xX, Q1_synth_delay = xX, Q2_synth_delay = xX, Q3_synth_delay = <%h>
WARNING: ./tester.v:35: missing argument for $monitor<%h>.

At time               320000
CLK = 1, CLK_2 = 1, CLK_4 = 0, CLK_8 = 0, sel = xX
Q0_cond = xX, Q1_cond = xX, Q2_cond = xX, Q3_cond = xX,
Q0_synth = xX, Q1_synth = xX, Q2_synth = xX, Q3_synth = xX
Q0_synth_delay = xX, Q1_synth_delay = xX, Q2_synth_delay = xX, Q3_synth_delay = <%h>
WARNING: ./tester.v:35: missing argument for $monitor<%h>.

At time               325000
CLK = 0, CLK_2 = 1, CLK_4 = 0, CLK_8 = 0, sel = xX
Q0_cond = xX, Q1_cond = xX, Q2_cond = xX, Q3_cond = xX,
Q0_synth = xX, Q1_synth = xX, Q2_synth = xX, Q3_synth = xX
Q0_synth_delay = xX, Q1_synth_delay = xX, Q2_synth_delay = xX, Q3_synth_delay = <%h>
WARNING: ./tester.v:35: missing argument for $monitor<%h>.

At time               330000
CLK = 1, CLK_2 = 0, CLK_4 = 0, CLK_8 = 0, sel = xX
Q0_cond = xX, Q1_cond = xX, Q2_cond = xX, Q3_cond = xX,
Q0_synth = xX, Q1_synth = xX, Q2_synth = xX, Q3_synth = xX
Q0_synth_delay = xX, Q1_synth_delay = xX, Q2_synth_delay = xX, Q3_synth_delay = <%h>
WARNING: ./tester.v:35: missing argument for $monitor<%h>.

At time               335000
CLK = 0, CLK_2 = 0, CLK_4 = 0, CLK_8 = 0, sel = xX
Q0_cond = xX, Q1_cond = xX, Q2_cond = xX, Q3_cond = xX,
Q0_synth = xX, Q1_synth = xX, Q2_synth = xX, Q3_synth = xX
Q0_synth_delay = xX, Q1_synth_delay = xX, Q2_synth_delay = xX, Q3_synth_delay = <%h>
WARNING: ./tester.v:35: missing argument for $monitor<%h>.

At time               340000
