counter/counter.vcd
$date
	Wed Apr 18 08:18:47 2018
$end
$version
	Icarus Verilog
$end
$timescale
	1s
$end
$scope module counter_tb $end
$var wire 8 ! ovalue [7:0] $end
$var reg 1 " iclk $end
$var reg 1 # ireset $end
$upscope $end
$enddefinitions $end
#0
$dumpvars
0#
0"
bx !
$end
#5
1"
#10
0"
#15
1"
#17
b0 !
1#
#20
0"
#25
b1 !
1"
#28
0#
#30
0"
#35
b10 !
1"
#40
0"
#45
b11 !
1"
#50
0"
#55
b100 !
1"
#57
b0 !
1#
#60
0"
#65
b1 !
1"
#68
0#
#70
0"
#75
b10 !
1"
#80
0"
#85
b11 !
1"
#90
0"
#95
b100 !
1"
#100
0"
#105
b101 !
1"
#110
0"
#115
b110 !
1"
#120
0"
#125
b111 !
1"
#130
0"
#135
b1000 !
1"
#140
0"
#145
b1001 !
1"
#150
0"
#155
b1010 !
1"
#160
0"
#165
b1011 !
1"
